(kicad_pcb (version 4) (host pcbnew 4.0.4-1.fc25-product)

  (general
    (links 148)
    (no_connects 0)
    (area 113.924999 117.924999 132.575001 146.575001)
    (thickness 1)
    (drawings 15)
    (tracks 124)
    (zones 0)
    (modules 20)
    (nets 22)
  )

  (page USLetter)
  (layers
    (0 F.Cu signal)
    (1 In1.Cu signal)
    (2 In2.Cu signal)
    (31 B.Cu signal)
    (34 B.Paste user)
    (35 F.Paste user)
    (36 B.SilkS user)
    (37 F.SilkS user)
    (38 B.Mask user)
    (39 F.Mask user)
    (40 Dwgs.User user)
    (41 Cmts.User user)
    (44 Edge.Cuts user)
  )

  (setup
    (last_trace_width 0.127)
    (user_trace_width 0.127)
    (user_trace_width 0.15)
    (user_trace_width 0.2)
    (user_trace_width 0.25)
    (user_trace_width 0.3)
    (user_trace_width 0.36)
    (user_trace_width 0.5)
    (user_trace_width 1.3)
    (trace_clearance 0.125)
    (zone_clearance 0.25)
    (zone_45_only yes)
    (trace_min 0.127)
    (segment_width 0.2)
    (edge_width 0.15)
    (via_size 0.46)
    (via_drill 0.2)
    (via_min_size 0.46)
    (via_min_drill 0.2)
    (user_via 0.46 0.2)
    (user_via 0.6 0.3)
    (user_via 0.8 0.5)
    (user_via 1.3 1)
    (user_via 2 1)
    (uvia_size 0.508)
    (uvia_drill 0.127)
    (uvias_allowed no)
    (uvia_min_size 0.508)
    (uvia_min_drill 0.127)
    (pcb_text_width 0.3)
    (pcb_text_size 1 1)
    (mod_edge_width 0.15)
    (mod_text_size 1 1)
    (mod_text_width 0.15)
    (pad_size 0.2 0.3)
    (pad_drill 0)
    (pad_to_mask_clearance 0.075)
    (solder_mask_min_width 0.1)
    (aux_axis_origin 0 0)
    (visible_elements FFFFEF7F)
    (pcbplotparams
      (layerselection 0x012fc_80000007)
      (usegerberextensions false)
      (excludeedgelayer true)
      (linewidth 0.150000)
      (plotframeref false)
      (viasonmask false)
      (mode 1)
      (useauxorigin false)
      (hpglpennumber 1)
      (hpglpenspeed 20)
      (hpglpendiameter 15)
      (hpglpenoverlay 2)
      (psnegative false)
      (psa4output false)
      (plotreference true)
      (plotvalue true)
      (plotinvisibletext false)
      (padsonsilk false)
      (subtractmaskfromsilk true)
      (outputformat 1)
      (mirror false)
      (drillshape 0)
      (scaleselection 1)
      (outputdirectory gerber))
  )

  (net 0 "")
  (net 1 GND)
  (net 2 i)
  (net 3 o)
  (net 4 C+)
  (net 5 C-)
  (net 6 5V)
  (net 7 U80/BYP)
  (net 8 U100/NRST)
  (net 9 N5V)
  (net 10 EN)
  (net 11 vc)
  (net 12 vd)
  (net 13 vg)
  (net 14 vd1)
  (net 15 5V5)
  (net 16 N2V)
  (net 17 vd2)
  (net 18 U1/NC)
  (net 19 bc)
  (net 20 U1/VDET)
  (net 21 1V)

  (net_class Default "This is the default net class."
    (clearance 0.125)
    (trace_width 0.127)
    (via_dia 0.46)
    (via_drill 0.2)
    (uvia_dia 0.508)
    (uvia_drill 0.127)
    (add_net 1V)
    (add_net 5V)
    (add_net 5V5)
    (add_net C+)
    (add_net C-)
    (add_net EN)
    (add_net GND)
    (add_net N2V)
    (add_net N5V)
    (add_net U1/NC)
    (add_net U1/VDET)
    (add_net U100/NRST)
    (add_net U80/BYP)
    (add_net bc)
    (add_net i)
    (add_net o)
    (add_net vc)
    (add_net vd)
    (add_net vd1)
    (add_net vd2)
    (add_net vg)
  )

  (module 0805 (layer F.Cu) (tedit 54DCFFA6) (tstamp 581D4760)
    (at 116.8 133.75 180)
    (path DEADBEF4)
    (attr smd)
    (fp_text reference C90 (at 0 -1.27 180) (layer F.SilkS) hide
      (effects (font (size 0.75 0.75) (thickness 0.127)))
    )
    (fp_text value "10 uF" (at 0 1.27 180) (layer Cmts.User) hide
      (effects (font (size 0.75 0.75) (thickness 0.127)))
    )
    (fp_line (start 0.4 0.75) (end -0.4 0.75) (layer F.SilkS) (width 0.15))
    (fp_line (start -0.4 -0.75) (end 0.4 -0.75) (layer F.SilkS) (width 0.15))
    (pad 1 smd rect (at -0.9 0 180) (size 0.8 1.2) (layers F.Cu F.Paste F.Mask)
      (net 4 C+))
    (pad 2 smd rect (at 0.9 0 180) (size 0.8 1.2) (layers F.Cu F.Paste F.Mask)
      (net 5 C-))
  )

  (module 0805 (layer F.Cu) (tedit 54DCFFA6) (tstamp 581D4768)
    (at 120.1 138.25 180)
    (path DEADBEF5)
    (attr smd)
    (fp_text reference C91 (at 0 -1.27 180) (layer F.SilkS) hide
      (effects (font (size 0.75 0.75) (thickness 0.127)))
    )
    (fp_text value "10 uF" (at 0 1.27 180) (layer Cmts.User) hide
      (effects (font (size 0.75 0.75) (thickness 0.127)))
    )
    (fp_line (start 0.4 0.75) (end -0.4 0.75) (layer F.SilkS) (width 0.15))
    (fp_line (start -0.4 -0.75) (end 0.4 -0.75) (layer F.SilkS) (width 0.15))
    (pad 1 smd rect (at -0.9 0 180) (size 0.8 1.2) (layers F.Cu F.Paste F.Mask)
      (net 9 N5V))
    (pad 2 smd rect (at 0.9 0 180) (size 0.8 1.2) (layers F.Cu F.Paste F.Mask)
      (net 1 GND))
  )

  (module SOT23-6 (layer F.Cu) (tedit 0) (tstamp 581D4777)
    (at 116.85 136.9 270)
    (descr DocString)
    (tags Keywords)
    (path DEADBEF3)
    (attr smd)
    (fp_text reference U90 (at 0 0 360) (layer F.SilkS)
      (effects (font (size 0.7 0.7) (thickness 0.127)))
    )
    (fp_text value TYCT6 (at 0 1.27 270) (layer F.SilkS) hide
      (effects (font (size 0.7 0.7) (thickness 0.127)))
    )
    (fp_arc (start 0 -1.5) (end 0.5 -1.5) (angle 180) (layer F.SilkS) (width 0.155))
    (fp_line (start -2.1 -1.5) (end -2.1 1.5) (layer F.SilkS) (width 0.155))
    (fp_line (start 2.1 -1.5) (end 2.1 1.5) (layer F.SilkS) (width 0.155))
    (fp_line (start -2.1 1.5) (end 2.1 1.5) (layer F.SilkS) (width 0.155))
    (fp_line (start -2.1 -1.5) (end 2.1 -1.5) (layer F.SilkS) (width 0.155))
    (pad 1 smd rect (at -1.35 -0.95 270) (size 1 0.55) (layers F.Cu F.Paste F.Mask)
      (net 9 N5V))
    (pad 2 smd rect (at -1.35 0 270) (size 1 0.55) (layers F.Cu F.Paste F.Mask)
      (net 6 5V))
    (pad 3 smd rect (at -1.35 0.95 270) (size 1 0.55) (layers F.Cu F.Paste F.Mask)
      (net 5 C-))
    (pad 4 smd rect (at 1.35 0.95 270) (size 1 0.55) (layers F.Cu F.Paste F.Mask)
      (net 1 GND))
    (pad 5 smd rect (at 1.35 0 270) (size 1 0.55) (layers F.Cu F.Paste F.Mask)
      (net 6 5V))
    (pad 6 smd rect (at 1.35 -0.95 270) (size 1 0.55) (layers F.Cu F.Paste F.Mask)
      (net 4 C+))
  )

  (module SOT23-5 (layer F.Cu) (tedit 0) (tstamp 581D4B44)
    (at 129.55 137.15 90)
    (descr DocString)
    (tags Keywords)
    (path DEADBEF0)
    (attr smd)
    (fp_text reference U80 (at 0.5 0 90) (layer F.SilkS)
      (effects (font (size 0.7 0.7) (thickness 0.127)))
    )
    (fp_text value CGK8Y (at 0 1.27 90) (layer F.SilkS) hide
      (effects (font (size 0.7 0.7) (thickness 0.127)))
    )
    (fp_arc (start 0 -1.5) (end 0.5 -1.5) (angle 180) (layer F.SilkS) (width 0.155))
    (fp_line (start -2.1 -1.5) (end -2.1 1.5) (layer F.SilkS) (width 0.155))
    (fp_line (start 2.1 -1.5) (end 2.1 1.5) (layer F.SilkS) (width 0.155))
    (fp_line (start -2.1 1.5) (end 2.1 1.5) (layer F.SilkS) (width 0.155))
    (fp_line (start -2.1 -1.5) (end 2.1 -1.5) (layer F.SilkS) (width 0.155))
    (pad 1 smd rect (at -1.35 -0.95 90) (size 1 0.55) (layers F.Cu F.Paste F.Mask)
      (net 15 5V5))
    (pad 2 smd rect (at -1.35 0 90) (size 1 0.55) (layers F.Cu F.Paste F.Mask)
      (net 1 GND))
    (pad 3 smd rect (at -1.35 0.95 90) (size 1 0.55) (layers F.Cu F.Paste F.Mask)
      (net 15 5V5))
    (pad 4 smd rect (at 1.35 0.95 90) (size 1 0.55) (layers F.Cu F.Paste F.Mask)
      (net 7 U80/BYP))
    (pad 5 smd rect (at 1.35 -0.95 90) (size 1 0.55) (layers F.Cu F.Paste F.Mask)
      (net 6 5V))
  )

  (module 0805 (layer F.Cu) (tedit 54DCFFA6) (tstamp 581D5064)
    (at 126.95 137.9 90)
    (path DEADBEF1)
    (attr smd)
    (fp_text reference C80 (at 0 -1.27 90) (layer F.SilkS) hide
      (effects (font (size 0.75 0.75) (thickness 0.127)))
    )
    (fp_text value "10 uF" (at 0 1.27 90) (layer Cmts.User) hide
      (effects (font (size 0.75 0.75) (thickness 0.127)))
    )
    (fp_line (start 0.4 0.75) (end -0.4 0.75) (layer F.SilkS) (width 0.15))
    (fp_line (start -0.4 -0.75) (end 0.4 -0.75) (layer F.SilkS) (width 0.15))
    (pad 1 smd rect (at -0.9 0 90) (size 0.8 1.2) (layers F.Cu F.Paste F.Mask)
      (net 15 5V5))
    (pad 2 smd rect (at 0.9 0 90) (size 0.8 1.2) (layers F.Cu F.Paste F.Mask)
      (net 1 GND))
  )

  (module 0805 (layer F.Cu) (tedit 54DCFFA6) (tstamp 581D506C)
    (at 126.95 134.9 90)
    (path DEADBEF2)
    (attr smd)
    (fp_text reference C81 (at 0 -1.27 90) (layer F.SilkS) hide
      (effects (font (size 0.75 0.75) (thickness 0.127)))
    )
    (fp_text value "10 uF" (at 0 1.27 90) (layer Cmts.User) hide
      (effects (font (size 0.75 0.75) (thickness 0.127)))
    )
    (fp_line (start 0.4 0.75) (end -0.4 0.75) (layer F.SilkS) (width 0.15))
    (fp_line (start -0.4 -0.75) (end 0.4 -0.75) (layer F.SilkS) (width 0.15))
    (pad 1 smd rect (at -0.9 0 90) (size 0.8 1.2) (layers F.Cu F.Paste F.Mask)
      (net 6 5V))
    (pad 2 smd rect (at 0.9 0 90) (size 0.8 1.2) (layers F.Cu F.Paste F.Mask)
      (net 1 GND))
  )

  (module SOT23-5 (layer F.Cu) (tedit 0) (tstamp 581E07B1)
    (at 120.8 135.15 90)
    (descr DocString)
    (tags Keywords)
    (path DEADBEF6)
    (attr smd)
    (fp_text reference U100 (at 0.65 0 90) (layer F.SilkS)
      (effects (font (size 0.7 0.7) (thickness 0.127)))
    )
    (fp_text value HXY76 (at 0 1.27 90) (layer F.SilkS) hide
      (effects (font (size 0.7 0.7) (thickness 0.127)))
    )
    (fp_arc (start 0 -1.5) (end 0.5 -1.5) (angle 180) (layer F.SilkS) (width 0.155))
    (fp_line (start -2.1 -1.5) (end -2.1 1.5) (layer F.SilkS) (width 0.155))
    (fp_line (start 2.1 -1.5) (end 2.1 1.5) (layer F.SilkS) (width 0.155))
    (fp_line (start -2.1 1.5) (end 2.1 1.5) (layer F.SilkS) (width 0.155))
    (fp_line (start -2.1 -1.5) (end 2.1 -1.5) (layer F.SilkS) (width 0.155))
    (pad 1 smd rect (at -1.35 -0.95 90) (size 1 0.55) (layers F.Cu F.Paste F.Mask)
      (net 8 U100/NRST))
    (pad 2 smd rect (at -1.35 0 90) (size 1 0.55) (layers F.Cu F.Paste F.Mask)
      (net 9 N5V))
    (pad 3 smd rect (at -1.35 0.95 90) (size 1 0.55) (layers F.Cu F.Paste F.Mask)
      (net 10 EN))
    (pad 4 smd rect (at 1.35 0.95 90) (size 1 0.55) (layers F.Cu F.Paste F.Mask)
      (net 1 GND))
    (pad 5 smd rect (at 1.35 -0.95 90) (size 1 0.55) (layers F.Cu F.Paste F.Mask)
      (net 1 GND))
  )

  (module SOT23-3 (layer F.Cu) (tedit 0) (tstamp 581E0DEC)
    (at 124.3 134.45 90)
    (descr DocString)
    (tags Keywords)
    (path DEADBEF7)
    (attr smd)
    (fp_text reference Q100 (at 0 0 360) (layer F.SilkS)
      (effects (font (size 0.7 0.7) (thickness 0.127)))
    )
    (fp_text value H4DJM (at 0 1.27 90) (layer F.SilkS) hide
      (effects (font (size 0.7 0.7) (thickness 0.127)))
    )
    (fp_line (start -0.5 -1.5) (end -0.5 1.5) (layer F.SilkS) (width 0.15))
    (fp_line (start -0.5 1.5) (end 0.5 1.5) (layer F.SilkS) (width 0.15))
    (fp_line (start 0.5 1.5) (end 0.5 -1.5) (layer F.SilkS) (width 0.15))
    (fp_line (start 0.5 -1.5) (end -0.5 -1.5) (layer F.SilkS) (width 0.15))
    (pad 1 smd rect (at -1.35 -0.95 90) (size 1 0.55) (layers F.Cu F.Paste F.Mask)
      (net 10 EN))
    (pad 2 smd rect (at -1.35 0.95 90) (size 1 0.55) (layers F.Cu F.Paste F.Mask)
      (net 6 5V))
    (pad 3 smd rect (at 1.35 0 90) (size 1 0.55) (layers F.Cu F.Paste F.Mask)
      (net 14 vd1))
  )

  (module 0402 (layer F.Cu) (tedit 0) (tstamp 581E0DF4)
    (at 124.35 136.95)
    (path DEADBEF8)
    (attr smd)
    (fp_text reference R100 (at 0 -1) (layer F.SilkS) hide
      (effects (font (size 0.75 0.75) (thickness 0.127)))
    )
    (fp_text value "4.99 k" (at 0 1.27) (layer Cmts.User) hide
      (effects (font (size 1.016 1.016) (thickness 0.127)))
    )
    (fp_line (start -0.1 0.4) (end 0.1 0.4) (layer F.SilkS) (width 0.15))
    (fp_line (start -0.1 -0.4) (end 0.1 -0.4) (layer F.SilkS) (width 0.15))
    (pad 1 smd rect (at -0.45 0) (size 0.4 0.5) (layers F.Cu F.Paste F.Mask)
      (net 10 EN))
    (pad 2 smd rect (at 0.45 0) (size 0.4 0.5) (layers F.Cu F.Paste F.Mask)
      (net 6 5V))
  )

  (module DF3_2 (layer F.Cu) (tedit 0) (tstamp 581E1532)
    (at 130 143 90)
    (descr DocString)
    (tags Keywords)
    (path DEADBEFC)
    (attr smd)
    (fp_text reference P3 (at -0.25 -1.75 90) (layer F.SilkS)
      (effects (font (size 0.7 0.7) (thickness 0.127)))
    )
    (fp_text value DF3_2 (at 0 1.27 90) (layer Cmts.User) hide
      (effects (font (size 1.016 1.016) (thickness 0.127)))
    )
    (fp_line (start -3 1) (end 3 1) (layer F.SilkS) (width 0.15))
    (fp_line (start 3 1) (end 3 -4) (layer F.SilkS) (width 0.15))
    (fp_line (start 3 -4) (end -3 -4) (layer F.SilkS) (width 0.15))
    (fp_line (start -3 -4) (end -3 1) (layer F.SilkS) (width 0.15))
    (pad 1 thru_hole circle (at 1 0 90) (size 1.5 1.5) (drill 0.85) (layers *.Cu *.Mask)
      (net 15 5V5))
    (pad 2 thru_hole circle (at -1 0 90) (size 1.5 1.5) (drill 0.85) (layers *.Cu *.Mask)
      (net 1 GND))
  )

  (module 0402 (layer F.Cu) (tedit 0) (tstamp 581E36CF)
    (at 123.95 129.45 270)
    (path DEADBEFD)
    (attr smd)
    (fp_text reference C4 (at 0 -1 270) (layer F.SilkS) hide
      (effects (font (size 0.75 0.75) (thickness 0.127)))
    )
    (fp_text value "100 nF" (at 0 1.27 270) (layer Cmts.User) hide
      (effects (font (size 1.016 1.016) (thickness 0.127)))
    )
    (fp_line (start -0.1 0.4) (end 0.1 0.4) (layer F.SilkS) (width 0.15))
    (fp_line (start -0.1 -0.4) (end 0.1 -0.4) (layer F.SilkS) (width 0.15))
    (pad 1 smd rect (at -0.45 0 270) (size 0.4 0.5) (layers F.Cu F.Paste F.Mask)
      (net 13 vg))
    (pad 2 smd rect (at 0.45 0 270) (size 0.4 0.5) (layers F.Cu F.Paste F.Mask)
      (net 1 GND))
  )

  (module 0402 (layer F.Cu) (tedit 0) (tstamp 581E37A1)
    (at 121.85 122.55 90)
    (path DEADBF01)
    (attr smd)
    (fp_text reference C9 (at 0 -1 90) (layer F.SilkS) hide
      (effects (font (size 0.75 0.75) (thickness 0.127)))
    )
    (fp_text value "100 nF" (at 0 1.27 90) (layer Cmts.User) hide
      (effects (font (size 1.016 1.016) (thickness 0.127)))
    )
    (fp_line (start -0.1 0.4) (end 0.1 0.4) (layer F.SilkS) (width 0.15))
    (fp_line (start -0.1 -0.4) (end 0.1 -0.4) (layer F.SilkS) (width 0.15))
    (pad 1 smd rect (at -0.45 0 90) (size 0.4 0.5) (layers F.Cu F.Paste F.Mask)
      (net 11 vc))
    (pad 2 smd rect (at 0.45 0 90) (size 0.4 0.5) (layers F.Cu F.Paste F.Mask)
      (net 1 GND))
  )

  (module POT_CT6 (layer F.Cu) (tedit 581E17AE) (tstamp 581E37AC)
    (at 118 143)
    (descr DocString)
    (tags Keywords)
    (path DEADBEFE)
    (attr smd)
    (fp_text reference R8 (at -2.1 2.5) (layer F.SilkS)
      (effects (font (size 0.7 0.7) (thickness 0.127)))
    )
    (fp_text value POT_5K (at 0 1.27) (layer Cmts.User) hide
      (effects (font (size 1.016 1.016) (thickness 0.127)))
    )
    (fp_line (start -3.5 3.5) (end 3.5 3.5) (layer F.SilkS) (width 0.15))
    (fp_line (start 3.5 3.5) (end 3.5 -3.5) (layer F.SilkS) (width 0.15))
    (fp_line (start 3.5 -3.5) (end -3.5 -3.5) (layer F.SilkS) (width 0.15))
    (fp_line (start -3.5 -3.5) (end -3.5 3.5) (layer F.SilkS) (width 0.15))
    (pad 3 thru_hole circle (at 2.5 0) (size 1.5 1.5) (drill 0.85) (layers *.Cu *.Mask)
      (net 21 1V))
    (pad 2 thru_hole circle (at 0 -2.5) (size 1.5 1.5) (drill 0.85) (layers *.Cu *.Mask)
      (net 11 vc))
    (pad 1 thru_hole circle (at -2.5 0) (size 1.5 1.5) (drill 0.85) (layers *.Cu *.Mask)
      (net 16 N2V))
  )

  (module 0402 (layer F.Cu) (tedit 0) (tstamp 581E37B4)
    (at 122.1 138.35 90)
    (path DEADBEFF)
    (attr smd)
    (fp_text reference R9 (at 0 -1 90) (layer F.SilkS) hide
      (effects (font (size 0.75 0.75) (thickness 0.127)))
    )
    (fp_text value "1 k" (at 0 1.27 90) (layer Cmts.User) hide
      (effects (font (size 1.016 1.016) (thickness 0.127)))
    )
    (fp_line (start -0.1 0.4) (end 0.1 0.4) (layer F.SilkS) (width 0.15))
    (fp_line (start -0.1 -0.4) (end 0.1 -0.4) (layer F.SilkS) (width 0.15))
    (pad 1 smd rect (at -0.45 0 90) (size 0.4 0.5) (layers F.Cu F.Paste F.Mask)
      (net 16 N2V))
    (pad 2 smd rect (at 0.45 0 90) (size 0.4 0.5) (layers F.Cu F.Paste F.Mask)
      (net 9 N5V))
  )

  (module NFM18P6V (layer F.Cu) (tedit 54E6C034) (tstamp 581E394B)
    (at 123.95 119.75 90)
    (descr DocString)
    (tags Keywords)
    (path DEADBF02)
    (zone_connect 2)
    (attr smd)
    (fp_text reference C10 (at 0 -1.1 270) (layer F.SilkS) hide
      (effects (font (size 0.7 0.7) (thickness 0.127)))
    )
    (fp_text value "1 uF" (at 0 -2.3 90) (layer Cmts.User) hide
      (effects (font (size 0.75 0.75) (thickness 0.127)))
    )
    (fp_line (start -0.65 0.4) (end -0.8 0.4) (layer F.SilkS) (width 0.15))
    (fp_line (start -0.65 -0.4) (end -0.8 -0.4) (layer F.SilkS) (width 0.15))
    (fp_line (start 0.65 0.4) (end 0.8 0.4) (layer F.SilkS) (width 0.15))
    (fp_line (start 0.8 -0.4) (end 0.65 -0.4) (layer F.SilkS) (width 0.15))
    (pad 2 thru_hole circle (at -0.24 0.8 90) (size 0.5 0.5) (drill 0.2) (layers *.Cu B.Mask)
      (net 1 GND) (zone_connect 2))
    (pad 2 thru_hole circle (at 0.24 0.8 90) (size 0.5 0.5) (drill 0.2) (layers *.Cu B.Mask)
      (net 1 GND) (zone_connect 2))
    (pad 2 thru_hole circle (at 0.24 -0.8 90) (size 0.5 0.5) (drill 0.2) (layers *.Cu B.Mask)
      (net 1 GND) (zone_connect 2))
    (pad 2 thru_hole circle (at -0.24 -0.8 90) (size 0.5 0.5) (drill 0.2) (layers *.Cu B.Mask)
      (net 1 GND) (zone_connect 2))
    (pad 2 smd rect (at 0 -0.4 90) (size 0.9 0.3) (layers F.Cu F.Paste F.Mask)
      (net 1 GND) (zone_connect 2))
    (pad 2 smd rect (at 0 0.4 90) (size 0.9 0.3) (layers F.Cu F.Paste F.Mask)
      (net 1 GND) (zone_connect 2))
    (pad 2 thru_hole circle (at 0.24 0 90) (size 0.5 0.5) (drill 0.2) (layers *.Cu B.Mask)
      (net 1 GND) (zone_connect 2))
    (pad 2 smd rect (at 0 0 90) (size 0.9 1.9) (layers F.Cu)
      (net 1 GND) (zone_connect 2))
    (pad 3 smd rect (at 0.8 0 90) (size 0.3 0.45) (layers F.Cu F.Paste F.Mask)
      (net 14 vd1) (zone_connect 2))
    (pad 1 smd rect (at -0.8 0 90) (size 0.3 0.45) (layers F.Cu F.Paste F.Mask)
      (net 17 vd2) (zone_connect 2))
    (pad 2 thru_hole circle (at -0.24 0 90) (size 0.5 0.5) (drill 0.2) (layers *.Cu B.Mask)
      (net 1 GND) (zone_connect 2))
  )

  (module 0603 (layer F.Cu) (tedit 54DB8A31) (tstamp 581E26B8)
    (at 123.95 122.1 90)
    (path DEADBF03)
    (attr smd)
    (fp_text reference L10 (at 0 1.25 90) (layer F.SilkS)
      (effects (font (size 0.75 0.75) (thickness 0.127)))
    )
    (fp_text value blm18bb471 (at 0 1.27 90) (layer Cmts.User) hide
      (effects (font (size 0.75 0.75) (thickness 0.127)))
    )
    (fp_line (start -0.2 -0.65) (end 0.2 -0.65) (layer F.SilkS) (width 0.15))
    (fp_line (start -0.2 0.65) (end 0.2 0.65) (layer F.SilkS) (width 0.15))
    (pad 1 smd rect (at -0.75 0 90) (size 0.7 0.8) (layers F.Cu F.Paste F.Mask)
      (net 12 vd))
    (pad 2 smd rect (at 0.75 0 90) (size 0.7 0.8) (layers F.Cu F.Paste F.Mask)
      (net 17 vd2))
  )

  (module MACOM_LGA9 (layer F.Cu) (tedit 581E245D) (tstamp 581E2F1E)
    (at 123.25 126)
    (descr DocString)
    (tags Keywords)
    (path DEADBEFA)
    (attr smd)
    (fp_text reference U1 (at -2.4 -3.5 90) (layer F.SilkS)
      (effects (font (size 0.7 0.7) (thickness 0.127)))
    )
    (fp_text value BFHYF (at 0 1.27) (layer F.SilkS) hide
      (effects (font (size 0.7 0.7) (thickness 0.127)))
    )
    (fp_line (start -2.5 -2.5) (end -2.75 -2.75) (layer F.SilkS) (width 0.155))
    (fp_line (start -2.5 -2.5) (end -2.5 -1.91) (layer F.SilkS) (width 0.155))
    (fp_line (start -2.5 -2.5) (end -1.91 -2.5) (layer F.SilkS) (width 0.155))
    (fp_line (start -2.5 2.5) (end -2.5 1.91) (layer F.SilkS) (width 0.155))
    (fp_line (start -2.5 2.5) (end -1.91 2.5) (layer F.SilkS) (width 0.155))
    (fp_line (start 2.5 -2.5) (end 1.91 -2.5) (layer F.SilkS) (width 0.155))
    (fp_line (start 2.5 -2.5) (end 2.5 -1.91) (layer F.SilkS) (width 0.155))
    (fp_line (start 2.5 2.5) (end 1.91 2.5) (layer F.SilkS) (width 0.155))
    (fp_line (start 2.5 2.5) (end 2.5 1.91) (layer F.SilkS) (width 0.155))
    (pad 10 smd rect (at 1.95 -1.85) (size 0.5 0.5) (layers F.Cu F.Paste F.Mask)
      (net 1 GND))
    (pad 10 smd rect (at 1.95 -1.05) (size 0.5 0.5) (layers F.Cu F.Paste F.Mask)
      (net 1 GND))
    (pad 10 smd rect (at -2 -1.1) (size 0.5 0.5) (layers F.Cu F.Paste F.Mask)
      (net 1 GND))
    (pad 10 smd rect (at 1.95 1.3) (size 0.5 0.5) (layers F.Cu F.Paste F.Mask)
      (net 1 GND))
    (pad 10 smd rect (at 2.1 2.05) (size 0.5 0.5) (layers F.Cu F.Paste F.Mask)
      (net 1 GND))
    (pad 10 smd rect (at -1.8 1.9) (size 0.5 0.5) (layers F.Cu F.Paste F.Mask)
      (net 1 GND))
    (pad 10 smd rect (at -2.05 1) (size 0.5 0.5) (layers F.Cu F.Paste F.Mask)
      (net 1 GND))
    (pad 10 thru_hole circle (at -2.15 -1.55) (size 0.5 0.5) (drill 0.2) (layers *.Cu *.Mask)
      (net 1 GND))
    (pad 10 thru_hole circle (at 1.45 -2.15) (size 0.5 0.5) (drill 0.2) (layers *.Cu *.Mask)
      (net 1 GND))
    (pad 10 thru_hole circle (at 2.15 -2.15) (size 0.5 0.5) (drill 0.2) (layers *.Cu *.Mask)
      (net 1 GND))
    (pad 10 thru_hole circle (at 1.45 2.15) (size 0.5 0.5) (drill 0.2) (layers *.Cu *.Mask)
      (net 1 GND))
    (pad 10 thru_hole circle (at 2.15 2.15) (size 0.5 0.5) (drill 0.2) (layers *.Cu *.Mask)
      (net 1 GND))
    (pad 10 thru_hole circle (at 2.15 0.85) (size 0.5 0.5) (drill 0.2) (layers *.Cu *.Mask)
      (net 1 GND))
    (pad 10 thru_hole circle (at 2.15 -0.85) (size 0.5 0.5) (drill 0.2) (layers *.Cu *.Mask)
      (net 1 GND))
    (pad 10 thru_hole circle (at -2.15 -0.85) (size 0.5 0.5) (drill 0.2) (layers *.Cu *.Mask)
      (net 1 GND))
    (pad 10 thru_hole circle (at -2.15 0.85) (size 0.5 0.5) (drill 0.2) (layers *.Cu *.Mask)
      (net 1 GND))
    (pad 10 thru_hole circle (at -2.15 2.15) (size 0.5 0.5) (drill 0.2) (layers *.Cu *.Mask)
      (net 1 GND))
    (pad 10 thru_hole circle (at -1.45 2.15) (size 0.5 0.5) (drill 0.2) (layers *.Cu *.Mask)
      (net 1 GND))
    (pad 10 smd rect (at -2.15 -1.55) (size 0.5 0.5) (layers F.Cu F.Mask)
      (net 1 GND))
    (pad 10 smd rect (at -1.8 -1.05) (size 1.2 0.9) (layers F.Cu F.Mask)
      (net 1 GND))
    (pad 10 smd rect (at 1.8 -1.5) (size 1.2 1.8) (layers F.Cu F.Mask)
      (net 1 GND))
    (pad 10 smd rect (at -1.8 1.5) (size 1.2 1.8) (layers F.Cu F.Mask)
      (net 1 GND))
    (pad 10 smd rect (at 1.8 1.5) (size 1.2 1.8) (layers F.Cu F.Mask)
      (net 1 GND))
    (pad 1 smd rect (at -2.1 0) (size 0.7 0.4) (layers F.Cu F.Paste F.Mask)
      (net 2 i))
    (pad 5 smd rect (at 2.1 0) (size 0.7 0.4) (layers F.Cu F.Paste F.Mask)
      (net 3 o))
    (pad 2 smd rect (at -0.7 2.1) (size 0.4 0.7) (layers F.Cu F.Paste F.Mask)
      (net 9 N5V))
    (pad 4 smd rect (at 0.7 2.1) (size 0.4 0.7) (layers F.Cu F.Paste F.Mask)
      (net 13 vg))
    (pad 6 smd rect (at 0.7 -2.1) (size 0.4 0.7) (layers F.Cu F.Paste F.Mask)
      (net 12 vd))
    (pad 9 smd rect (at -1.4 -2.1) (size 0.4 0.7) (layers F.Cu F.Paste F.Mask)
      (net 11 vc))
    (pad 10 smd rect (at 0 0) (size 3 3) (layers F.Cu F.Mask)
      (net 1 GND))
    (pad 10 smd rect (at -1 -1) (size 0.707107 0.707107) (layers F.Cu F.Paste F.Mask)
      (net 1 GND))
    (pad 10 smd rect (at -1 0) (size 0.707107 0.707107) (layers F.Cu F.Paste F.Mask)
      (net 1 GND))
    (pad 10 smd rect (at -1 1) (size 0.707107 0.707107) (layers F.Cu F.Paste F.Mask)
      (net 1 GND))
    (pad 10 smd rect (at 0 -1) (size 0.707107 0.707107) (layers F.Cu F.Paste F.Mask)
      (net 1 GND))
    (pad 10 smd rect (at 0 0) (size 0.707107 0.707107) (layers F.Cu F.Paste F.Mask)
      (net 1 GND))
    (pad 10 smd rect (at 0 1) (size 0.707107 0.707107) (layers F.Cu F.Paste F.Mask)
      (net 1 GND))
    (pad 10 smd rect (at 1 -1) (size 0.707107 0.707107) (layers F.Cu F.Paste F.Mask)
      (net 1 GND))
    (pad 10 smd rect (at 1 0) (size 0.707107 0.707107) (layers F.Cu F.Paste F.Mask)
      (net 1 GND))
    (pad 10 smd rect (at 1 1) (size 0.707107 0.707107) (layers F.Cu F.Paste F.Mask)
      (net 1 GND))
    (pad 10 thru_hole circle (at -1.2 -1.2) (size 0.5 0.5) (drill 0.2) (layers *.Cu *.Mask)
      (net 1 GND))
    (pad 10 thru_hole circle (at -1.2 -0.4) (size 0.5 0.5) (drill 0.2) (layers *.Cu *.Mask)
      (net 1 GND))
    (pad 10 thru_hole circle (at -1.2 0.4) (size 0.5 0.5) (drill 0.2) (layers *.Cu *.Mask)
      (net 1 GND))
    (pad 10 thru_hole circle (at -1.2 1.2) (size 0.5 0.5) (drill 0.2) (layers *.Cu *.Mask)
      (net 1 GND))
    (pad 10 thru_hole circle (at -0.4 -1.2) (size 0.5 0.5) (drill 0.2) (layers *.Cu *.Mask)
      (net 1 GND))
    (pad 10 thru_hole circle (at -0.4 -0.4) (size 0.5 0.5) (drill 0.2) (layers *.Cu *.Mask)
      (net 1 GND))
    (pad 10 thru_hole circle (at -0.4 0.4) (size 0.5 0.5) (drill 0.2) (layers *.Cu *.Mask)
      (net 1 GND))
    (pad 10 thru_hole circle (at -0.4 1.2) (size 0.5 0.5) (drill 0.2) (layers *.Cu *.Mask)
      (net 1 GND))
    (pad 10 thru_hole circle (at 0.4 -1.2) (size 0.5 0.5) (drill 0.2) (layers *.Cu *.Mask)
      (net 1 GND))
    (pad 10 thru_hole circle (at 0.4 -0.4) (size 0.5 0.5) (drill 0.2) (layers *.Cu *.Mask)
      (net 1 GND))
    (pad 10 thru_hole circle (at 0.4 0.4) (size 0.5 0.5) (drill 0.2) (layers *.Cu *.Mask)
      (net 1 GND))
    (pad 10 thru_hole circle (at 0.4 1.2) (size 0.5 0.5) (drill 0.2) (layers *.Cu *.Mask)
      (net 1 GND))
    (pad 10 thru_hole circle (at 1.2 -1.2) (size 0.5 0.5) (drill 0.2) (layers *.Cu *.Mask)
      (net 1 GND))
    (pad 10 thru_hole circle (at 1.2 -0.4) (size 0.5 0.5) (drill 0.2) (layers *.Cu *.Mask)
      (net 1 GND))
    (pad 10 thru_hole circle (at 1.2 0.4) (size 0.5 0.5) (drill 0.2) (layers *.Cu *.Mask)
      (net 1 GND))
    (pad 10 thru_hole circle (at 1.2 1.2) (size 0.5 0.5) (drill 0.2) (layers *.Cu *.Mask)
      (net 1 GND))
    (pad 3 smd rect (at 0 2.1) (size 0.4 0.7) (layers F.Cu F.Paste F.Mask)
      (net 18 U1/NC))
    (pad 7 smd rect (at 0 -2.1) (size 0.4 0.7) (layers F.Cu F.Paste F.Mask)
      (net 19 bc))
    (pad 8 smd rect (at -0.7 -2.1) (size 0.4 0.7) (layers F.Cu F.Paste F.Mask)
      (net 20 U1/VDET))
  )

  (module SMA_R (layer F.Cu) (tedit 581E26FF) (tstamp 581E4367)
    (at 114.5 126 90)
    (descr DocString)
    (tags Keywords)
    (path DEADBEF9)
    (attr smd)
    (fp_text reference J1 (at 8 2 90) (layer F.SilkS) hide
      (effects (font (size 0.7 0.7) (thickness 0.127)))
    )
    (fp_text value TK38Q (at -1.05 1.6 90) (layer F.SilkS) hide
      (effects (font (size 0.7 0.7) (thickness 0.127)))
    )
    (pad 2 smd rect (at 0 2.85 90) (size 12.7 5.5) (layers *.Mask B.Cu)
      (net 1 GND) (zone_connect 2))
    (pad 2 thru_hole circle (at -0.65 5.35 90) (size 0.45 0.45) (drill 0.2) (layers *.Cu *.Mask)
      (net 1 GND) (zone_connect 2))
    (pad 2 thru_hole circle (at -0.65 4.85 90) (size 0.45 0.45) (drill 0.2) (layers *.Cu *.Mask)
      (net 1 GND) (zone_connect 2))
    (pad 2 thru_hole circle (at -0.65 4.35 90) (size 0.45 0.45) (drill 0.2) (layers *.Cu *.Mask)
      (net 1 GND) (zone_connect 2))
    (pad 2 thru_hole circle (at 0.65 4.35 90) (size 0.45 0.45) (drill 0.2) (layers *.Cu *.Mask)
      (net 1 GND) (zone_connect 2))
    (pad 2 thru_hole circle (at 0.65 4.85 90) (size 0.45 0.45) (drill 0.2) (layers *.Cu *.Mask)
      (net 1 GND) (zone_connect 2))
    (pad 2 thru_hole circle (at 0.65 5.35 90) (size 0.45 0.45) (drill 0.2) (layers *.Cu *.Mask)
      (net 1 GND) (zone_connect 2))
    (pad 2 smd rect (at 3.4 2.85 90) (size 6 5.5) (layers F.Cu F.Mask)
      (net 1 GND) (zone_connect 2))
    (pad 2 smd rect (at -3.4 2.85 90) (size 6 5.5) (layers F.Cu F.Mask)
      (net 1 GND) (zone_connect 2))
    (pad 2 thru_hole circle (at -0.65 3.35 90) (size 0.45 0.45) (drill 0.2) (layers *.Cu *.Mask)
      (net 1 GND) (zone_connect 2))
    (pad 2 thru_hole circle (at -0.65 3.85 90) (size 0.45 0.45) (drill 0.2) (layers *.Cu *.Mask)
      (net 1 GND) (zone_connect 2))
    (pad 2 thru_hole circle (at -0.65 2.85 90) (size 0.45 0.45) (drill 0.2) (layers *.Cu *.Mask)
      (net 1 GND) (zone_connect 2))
    (pad 2 thru_hole circle (at -0.65 2.35 90) (size 0.45 0.45) (drill 0.2) (layers *.Cu *.Mask)
      (net 1 GND) (zone_connect 2))
    (pad 2 thru_hole circle (at 0.65 2.35 90) (size 0.45 0.45) (drill 0.2) (layers *.Cu *.Mask)
      (net 1 GND) (zone_connect 2))
    (pad 2 thru_hole circle (at 0.65 2.85 90) (size 0.45 0.45) (drill 0.2) (layers *.Cu *.Mask)
      (net 1 GND) (zone_connect 2))
    (pad 2 thru_hole circle (at 0.65 3.85 90) (size 0.45 0.45) (drill 0.2) (layers *.Cu *.Mask)
      (net 1 GND) (zone_connect 2))
    (pad 2 thru_hole circle (at 0.65 3.35 90) (size 0.45 0.45) (drill 0.2) (layers *.Cu *.Mask)
      (net 1 GND) (zone_connect 2))
    (pad 2 thru_hole circle (at -0.65 1.85 90) (size 0.45 0.45) (drill 0.2) (layers *.Cu *.Mask)
      (net 1 GND) (zone_connect 2))
    (pad 2 thru_hole circle (at -0.65 1.35 90) (size 0.45 0.45) (drill 0.2) (layers *.Cu *.Mask)
      (net 1 GND) (zone_connect 2))
    (pad 2 thru_hole circle (at 0.65 1.35 90) (size 0.45 0.45) (drill 0.2) (layers *.Cu *.Mask)
      (net 1 GND) (zone_connect 2))
    (pad 2 thru_hole circle (at 0.65 1.85 90) (size 0.45 0.45) (drill 0.2) (layers *.Cu *.Mask)
      (net 1 GND) (zone_connect 2))
    (pad 2 thru_hole circle (at -0.65 0.35 90) (size 0.45 0.45) (drill 0.2) (layers *.Cu *.Mask)
      (net 1 GND) (zone_connect 2))
    (pad 2 thru_hole circle (at -0.65 0.85 90) (size 0.45 0.45) (drill 0.2) (layers *.Cu *.Mask)
      (net 1 GND) (zone_connect 2))
    (pad 2 thru_hole circle (at 0.65 0.85 90) (size 0.45 0.45) (drill 0.2) (layers *.Cu *.Mask)
      (net 1 GND) (zone_connect 2))
    (pad 2 thru_hole circle (at -4.763 2.83 90) (size 3 3) (drill 2) (layers *.Cu *.Mask)
      (net 1 GND) (zone_connect 2))
    (pad 2 thru_hole circle (at 0.65 0.35 90) (size 0.45 0.45) (drill 0.2) (layers *.Cu *.Mask)
      (net 1 GND) (zone_connect 2))
    (pad 2 thru_hole circle (at 4.763 2.83 90) (size 3 3) (drill 2) (layers *.Cu *.Mask)
      (net 1 GND) (zone_connect 2))
    (pad 1 smd rect (at 0 0.65 90) (size 0.33 1) (layers F.Cu F.Mask)
      (net 2 i) (zone_connect 2))
  )

  (module SMA_R (layer F.Cu) (tedit 572D59A3) (tstamp 581E4386)
    (at 132 126 270)
    (descr DocString)
    (tags Keywords)
    (path DEADBEFB)
    (attr smd)
    (fp_text reference J2 (at 8 2 270) (layer F.SilkS)
      (effects (font (size 0.7 0.7) (thickness 0.127)))
    )
    (fp_text value TK38Q (at -1.05 1.6 270) (layer F.SilkS) hide
      (effects (font (size 0.7 0.7) (thickness 0.127)))
    )
    (pad 2 smd rect (at 0 2.85 270) (size 12.7 5.5) (layers *.Mask B.Cu)
      (net 1 GND) (zone_connect 2))
    (pad 2 thru_hole circle (at -0.65 5.35 270) (size 0.45 0.45) (drill 0.2) (layers *.Cu *.Mask)
      (net 1 GND) (zone_connect 2))
    (pad 2 thru_hole circle (at -0.65 4.85 270) (size 0.45 0.45) (drill 0.2) (layers *.Cu *.Mask)
      (net 1 GND) (zone_connect 2))
    (pad 2 thru_hole circle (at -0.65 4.35 270) (size 0.45 0.45) (drill 0.2) (layers *.Cu *.Mask)
      (net 1 GND) (zone_connect 2))
    (pad 2 thru_hole circle (at 0.65 4.35 270) (size 0.45 0.45) (drill 0.2) (layers *.Cu *.Mask)
      (net 1 GND) (zone_connect 2))
    (pad 2 thru_hole circle (at 0.65 4.85 270) (size 0.45 0.45) (drill 0.2) (layers *.Cu *.Mask)
      (net 1 GND) (zone_connect 2))
    (pad 2 thru_hole circle (at 0.65 5.35 270) (size 0.45 0.45) (drill 0.2) (layers *.Cu *.Mask)
      (net 1 GND) (zone_connect 2))
    (pad 2 smd rect (at 3.4 2.85 270) (size 6 5.5) (layers F.Cu F.Mask)
      (net 1 GND) (zone_connect 2))
    (pad 2 smd rect (at -3.4 2.85 270) (size 6 5.5) (layers F.Cu F.Mask)
      (net 1 GND) (zone_connect 2))
    (pad 2 thru_hole circle (at -0.65 3.35 270) (size 0.45 0.45) (drill 0.2) (layers *.Cu *.Mask)
      (net 1 GND) (zone_connect 2))
    (pad 2 thru_hole circle (at -0.65 3.85 270) (size 0.45 0.45) (drill 0.2) (layers *.Cu *.Mask)
      (net 1 GND) (zone_connect 2))
    (pad 2 thru_hole circle (at -0.65 2.85 270) (size 0.45 0.45) (drill 0.2) (layers *.Cu *.Mask)
      (net 1 GND) (zone_connect 2))
    (pad 2 thru_hole circle (at -0.65 2.35 270) (size 0.45 0.45) (drill 0.2) (layers *.Cu *.Mask)
      (net 1 GND) (zone_connect 2))
    (pad 2 thru_hole circle (at 0.65 2.35 270) (size 0.45 0.45) (drill 0.2) (layers *.Cu *.Mask)
      (net 1 GND) (zone_connect 2))
    (pad 2 thru_hole circle (at 0.65 2.85 270) (size 0.45 0.45) (drill 0.2) (layers *.Cu *.Mask)
      (net 1 GND) (zone_connect 2))
    (pad 2 thru_hole circle (at 0.65 3.85 270) (size 0.45 0.45) (drill 0.2) (layers *.Cu *.Mask)
      (net 1 GND) (zone_connect 2))
    (pad 2 thru_hole circle (at 0.65 3.35 270) (size 0.45 0.45) (drill 0.2) (layers *.Cu *.Mask)
      (net 1 GND) (zone_connect 2))
    (pad 2 thru_hole circle (at -0.65 1.85 270) (size 0.45 0.45) (drill 0.2) (layers *.Cu *.Mask)
      (net 1 GND) (zone_connect 2))
    (pad 2 thru_hole circle (at -0.65 1.35 270) (size 0.45 0.45) (drill 0.2) (layers *.Cu *.Mask)
      (net 1 GND) (zone_connect 2))
    (pad 2 thru_hole circle (at 0.65 1.35 270) (size 0.45 0.45) (drill 0.2) (layers *.Cu *.Mask)
      (net 1 GND) (zone_connect 2))
    (pad 2 thru_hole circle (at 0.65 1.85 270) (size 0.45 0.45) (drill 0.2) (layers *.Cu *.Mask)
      (net 1 GND) (zone_connect 2))
    (pad 2 thru_hole circle (at -0.65 0.35 270) (size 0.45 0.45) (drill 0.2) (layers *.Cu *.Mask)
      (net 1 GND) (zone_connect 2))
    (pad 2 thru_hole circle (at -0.65 0.85 270) (size 0.45 0.45) (drill 0.2) (layers *.Cu *.Mask)
      (net 1 GND) (zone_connect 2))
    (pad 2 thru_hole circle (at 0.65 0.85 270) (size 0.45 0.45) (drill 0.2) (layers *.Cu *.Mask)
      (net 1 GND) (zone_connect 2))
    (pad 2 thru_hole circle (at -4.763 2.83 270) (size 3 3) (drill 2) (layers *.Cu *.Mask)
      (net 1 GND) (zone_connect 2))
    (pad 2 thru_hole circle (at 0.65 0.35 270) (size 0.45 0.45) (drill 0.2) (layers *.Cu *.Mask)
      (net 1 GND) (zone_connect 2))
    (pad 2 thru_hole circle (at 4.763 2.83 270) (size 3 3) (drill 2) (layers *.Cu *.Mask)
      (net 1 GND) (zone_connect 2))
    (pad 1 smd rect (at 0 0.65 270) (size 0.33 1) (layers F.Cu F.Mask)
      (net 3 o) (zone_connect 2))
  )

  (module 0402 (layer F.Cu) (tedit 0) (tstamp 581E455C)
    (at 124.5 138.5 90)
    (path DEADBF00)
    (attr smd)
    (fp_text reference R10 (at 0 -1 90) (layer F.SilkS) hide
      (effects (font (size 0.75 0.75) (thickness 0.127)))
    )
    (fp_text value "4.99 k" (at 0 1.27 90) (layer Cmts.User) hide
      (effects (font (size 1.016 1.016) (thickness 0.127)))
    )
    (fp_line (start -0.1 0.4) (end 0.1 0.4) (layer F.SilkS) (width 0.15))
    (fp_line (start -0.1 -0.4) (end 0.1 -0.4) (layer F.SilkS) (width 0.15))
    (pad 1 smd rect (at -0.45 0 90) (size 0.4 0.5) (layers F.Cu F.Paste F.Mask)
      (net 21 1V))
    (pad 2 smd rect (at 0.45 0 90) (size 0.4 0.5) (layers F.Cu F.Paste F.Mask)
      (net 6 5V))
  )

  (gr_line (start 121.5 119) (end 121 119.5) (layer F.SilkS) (width 0.2))
  (gr_line (start 121.5 119) (end 121 118.5) (layer F.SilkS) (width 0.2))
  (gr_line (start 118.5 119) (end 121.5 119) (layer F.SilkS) (width 0.2))
  (gr_line (start 132 125) (end 132 118) (layer Edge.Cuts) (width 0.15))
  (gr_line (start 132.5 125) (end 132 125) (layer Edge.Cuts) (width 0.15))
  (gr_line (start 132.5 127) (end 132.5 125) (layer Edge.Cuts) (width 0.15))
  (gr_line (start 132 127) (end 132.5 127) (layer Edge.Cuts) (width 0.15))
  (gr_line (start 132 146.5) (end 132 127) (layer Edge.Cuts) (width 0.15))
  (gr_line (start 114.5 146.5) (end 132 146.5) (layer Edge.Cuts) (width 0.15))
  (gr_line (start 114.5 127) (end 114.5 146.5) (layer Edge.Cuts) (width 0.15))
  (gr_line (start 114 127) (end 114.5 127) (layer Edge.Cuts) (width 0.15))
  (gr_line (start 114 125) (end 114 127) (layer Edge.Cuts) (width 0.15))
  (gr_line (start 114.5 125) (end 114 125) (layer Edge.Cuts) (width 0.15))
  (gr_line (start 114.5 118) (end 114.5 125) (layer Edge.Cuts) (width 0.15))
  (gr_line (start 132 118) (end 114.5 118) (layer Edge.Cuts) (width 0.15))

  (segment (start 123.95 129.9) (end 124.45 129.9) (width 0.3) (layer F.Cu) (net 1))
  (via (at 124.45 129.9) (size 0.46) (drill 0.2) (layers F.Cu B.Cu) (net 1))
  (segment (start 123.95 129.9) (end 123.45 129.9) (width 0.3) (layer F.Cu) (net 1))
  (via (at 123.45 129.9) (size 0.46) (drill 0.2) (layers F.Cu B.Cu) (net 1))
  (segment (start 121.85 122.1) (end 122.35 122.1) (width 0.36) (layer F.Cu) (net 1))
  (via (at 122.35 122.1) (size 0.46) (drill 0.2) (layers F.Cu B.Cu) (net 1))
  (segment (start 121.85 122.1) (end 121.35 122.1) (width 0.36) (layer F.Cu) (net 1))
  (via (at 121.35 122.1) (size 0.46) (drill 0.2) (layers F.Cu B.Cu) (net 1))
  (segment (start 119.2 138.25) (end 118.55 138.25) (width 0.3) (layer F.Cu) (net 1))
  (via (at 118.55 138.25) (size 0.46) (drill 0.2) (layers F.Cu B.Cu) (net 1))
  (segment (start 119.2 138.25) (end 119.2 139.1) (width 0.3) (layer F.Cu) (net 1))
  (via (at 119.2 139.1) (size 0.46) (drill 0.2) (layers F.Cu B.Cu) (net 1))
  (segment (start 119.2 138.25) (end 119.2 137.4) (width 0.3) (layer F.Cu) (net 1))
  (via (at 119.2 137.4) (size 0.46) (drill 0.2) (layers F.Cu B.Cu) (net 1))
  (segment (start 119.2 138.25) (end 119.85 138.25) (width 0.3) (layer F.Cu) (net 1))
  (via (at 119.85 138.25) (size 0.46) (drill 0.2) (layers F.Cu B.Cu) (net 1))
  (segment (start 115.9 138.25) (end 115.9 139) (width 0.3) (layer F.Cu) (net 1))
  (via (at 115.9 139) (size 0.46) (drill 0.2) (layers F.Cu B.Cu) (net 1))
  (segment (start 115.9 138.25) (end 115.9 137.45) (width 0.3) (layer F.Cu) (net 1))
  (via (at 115.9 137.45) (size 0.46) (drill 0.2) (layers F.Cu B.Cu) (net 1))
  (segment (start 126.95 137) (end 126.95 137.65) (width 0.36) (layer F.Cu) (net 1))
  (via (at 126.95 137.65) (size 0.46) (drill 0.2) (layers F.Cu B.Cu) (net 1))
  (segment (start 126.95 137) (end 127.8 137) (width 0.36) (layer F.Cu) (net 1))
  (via (at 127.8 137) (size 0.46) (drill 0.2) (layers F.Cu B.Cu) (net 1))
  (segment (start 126.95 137) (end 126.1 137) (width 0.36) (layer F.Cu) (net 1))
  (via (at 126.1 137) (size 0.46) (drill 0.2) (layers F.Cu B.Cu) (net 1))
  (segment (start 129.55 138.5) (end 129.55 139.25) (width 0.36) (layer F.Cu) (net 1))
  (via (at 129.55 139.25) (size 0.46) (drill 0.2) (layers F.Cu B.Cu) (net 1))
  (segment (start 129.55 138.5) (end 129.55 137.75) (width 0.36) (layer F.Cu) (net 1))
  (via (at 129.55 137.75) (size 0.46) (drill 0.2) (layers F.Cu B.Cu) (net 1))
  (segment (start 126.95 134) (end 127.8 134) (width 0.36) (layer F.Cu) (net 1))
  (via (at 127.8 134) (size 0.46) (drill 0.2) (layers F.Cu B.Cu) (net 1))
  (segment (start 126.95 134) (end 126.1 134) (width 0.36) (layer F.Cu) (net 1))
  (via (at 126.1 134) (size 0.46) (drill 0.2) (layers F.Cu B.Cu) (net 1))
  (segment (start 126.95 134) (end 126.95 133.35) (width 0.36) (layer F.Cu) (net 1))
  (via (at 126.95 133.35) (size 0.46) (drill 0.2) (layers F.Cu B.Cu) (net 1))
  (segment (start 126.95 134) (end 126.95 134.65) (width 0.36) (layer F.Cu) (net 1))
  (via (at 126.95 134.65) (size 0.46) (drill 0.2) (layers F.Cu B.Cu) (net 1))
  (segment (start 121.75 133.8) (end 120.8 133.8) (width 0.36) (layer F.Cu) (net 1))
  (segment (start 119.85 133.8) (end 120.8 133.8) (width 0.36) (layer F.Cu) (net 1))
  (via (at 120.8 133.8) (size 0.46) (drill 0.2) (layers F.Cu B.Cu) (net 1))
  (segment (start 115.25 126) (end 121.15 126) (width 0.33) (layer F.Cu) (net 2))
  (segment (start 125.35 126) (end 131.25 126) (width 0.33) (layer F.Cu) (net 3))
  (segment (start 118.65 135) (end 118.65 136.25) (width 0.3) (layer In2.Cu) (net 4))
  (segment (start 118.65 135) (end 118.65 134.7) (width 0.3) (layer F.Cu) (net 4))
  (segment (start 118.65 134.7) (end 117.7 133.75) (width 0.3) (layer F.Cu) (net 4))
  (via (at 118.65 135) (size 0.46) (drill 0.2) (layers F.Cu B.Cu) (net 4))
  (via (at 118.65 136.25) (size 0.46) (drill 0.2) (layers F.Cu B.Cu) (net 4))
  (segment (start 117.8 137.1) (end 118.65 136.25) (width 0.3) (layer F.Cu) (net 4))
  (segment (start 117.8 138.25) (end 117.8 137.1) (width 0.3) (layer F.Cu) (net 4))
  (segment (start 115.9 133.75) (end 115.9 135.55) (width 0.3) (layer F.Cu) (net 5))
  (segment (start 116.5 141) (end 116.5 136.7) (width 0.3) (layer In2.Cu) (net 6))
  (segment (start 116.5 136.7) (end 116.85 136.35) (width 0.3) (layer In2.Cu) (net 6))
  (segment (start 117.5 142) (end 116.5 141) (width 0.3) (layer In2.Cu) (net 6))
  (segment (start 118.5 142) (end 117.5 142) (width 0.3) (layer In2.Cu) (net 6))
  (segment (start 124.7 135.8) (end 118.5 142) (width 0.3) (layer In2.Cu) (net 6))
  (segment (start 126.1 135.8) (end 124.7 135.8) (width 0.3) (layer In2.Cu) (net 6))
  (segment (start 124.8 136.95) (end 124.8 137.75) (width 0.3) (layer F.Cu) (net 6))
  (segment (start 124.8 137.75) (end 124.5 138.05) (width 0.3) (layer F.Cu) (net 6))
  (segment (start 116.85 138.25) (end 116.85 136.35) (width 0.3) (layer F.Cu) (net 6))
  (segment (start 116.85 135.55) (end 116.85 136.35) (width 0.3) (layer F.Cu) (net 6))
  (via (at 116.85 136.35) (size 0.46) (drill 0.2) (layers F.Cu B.Cu) (net 6))
  (segment (start 125.25 135.8) (end 126.1 135.8) (width 0.36) (layer F.Cu) (net 6))
  (segment (start 126.95 135.8) (end 126.1 135.8) (width 0.3) (layer F.Cu) (net 6))
  (via (at 126.1 135.8) (size 0.46) (drill 0.2) (layers F.Cu B.Cu) (net 6))
  (segment (start 126.95 135.8) (end 128.6 135.8) (width 0.36) (layer F.Cu) (net 6))
  (segment (start 124.8 136.95) (end 124.8 136.25) (width 0.36) (layer F.Cu) (net 6))
  (segment (start 124.8 136.25) (end 125.25 135.8) (width 0.36) (layer F.Cu) (net 6))
  (segment (start 122 135.5) (end 121 135.5) (width 0.3) (layer F.Cu) (net 9))
  (segment (start 121 135.5) (end 120.8 135.7) (width 0.3) (layer F.Cu) (net 9))
  (segment (start 123 134.5) (end 122 135.5) (width 0.3) (layer F.Cu) (net 9))
  (segment (start 123 131.5) (end 123 134.5) (width 0.3) (layer F.Cu) (net 9))
  (segment (start 122.55 131.05) (end 123 131.5) (width 0.3) (layer F.Cu) (net 9))
  (segment (start 122.55 128.1) (end 122.55 131.05) (width 0.3) (layer F.Cu) (net 9))
  (segment (start 117.8 135.55) (end 120.65 135.55) (width 0.3) (layer F.Cu) (net 9))
  (segment (start 120.65 135.55) (end 120.8 135.7) (width 0.3) (layer F.Cu) (net 9))
  (segment (start 120.8 135.7) (end 120.8 136.5) (width 0.3) (layer F.Cu) (net 9))
  (segment (start 120.8 136.5) (end 120.8 138.05) (width 0.3) (layer F.Cu) (net 9))
  (segment (start 120.8 138.05) (end 121 138.25) (width 0.3) (layer F.Cu) (net 9))
  (segment (start 122.1 137.9) (end 121.35 137.9) (width 0.3) (layer F.Cu) (net 9))
  (segment (start 121.35 137.9) (end 121 138.25) (width 0.3) (layer F.Cu) (net 9))
  (segment (start 123.9 136.95) (end 123.9 136.35) (width 0.36) (layer F.Cu) (net 10))
  (segment (start 123.9 136.35) (end 123.35 135.8) (width 0.36) (layer F.Cu) (net 10))
  (segment (start 121.75 136.5) (end 122.65 136.5) (width 0.36) (layer F.Cu) (net 10))
  (segment (start 122.65 136.5) (end 123.35 135.8) (width 0.36) (layer F.Cu) (net 10))
  (segment (start 120.45 131.65) (end 118 134.1) (width 0.3) (layer In2.Cu) (net 11))
  (segment (start 118 134.1) (end 118 140.5) (width 0.3) (layer In2.Cu) (net 11))
  (segment (start 120.45 123.9) (end 120.45 131.65) (width 0.3) (layer In2.Cu) (net 11))
  (segment (start 121.35 123) (end 120.45 123.9) (width 0.3) (layer In2.Cu) (net 11))
  (segment (start 121.85 123) (end 121.35 123) (width 0.36) (layer F.Cu) (net 11))
  (via (at 121.35 123) (size 0.46) (drill 0.2) (layers F.Cu B.Cu) (net 11))
  (segment (start 121.85 123) (end 121.85 123.9) (width 0.36) (layer F.Cu) (net 11))
  (segment (start 123.95 123.9) (end 123.95 122.85) (width 0.36) (layer F.Cu) (net 12))
  (segment (start 123.95 128.1) (end 123.95 129) (width 0.3) (layer F.Cu) (net 13))
  (segment (start 126 123.5) (end 126 129) (width 0.3) (layer In2.Cu) (net 14))
  (segment (start 126 129) (end 125.5 129.5) (width 0.3) (layer In2.Cu) (net 14))
  (segment (start 125.5 123) (end 126 123.5) (width 0.3) (layer In2.Cu) (net 14))
  (segment (start 124.3 131.2) (end 125.5 130) (width 0.3) (layer F.Cu) (net 14))
  (segment (start 125.5 130) (end 125.5 129.5) (width 0.3) (layer F.Cu) (net 14))
  (via (at 125.5 129.5) (size 0.46) (drill 0.2) (layers F.Cu B.Cu) (net 14))
  (segment (start 124.3 133.1) (end 124.3 131.2) (width 0.3) (layer F.Cu) (net 14))
  (segment (start 125.305944 119.748649) (end 125.305944 122.805944) (width 0.3) (layer F.Cu) (net 14))
  (segment (start 125.305944 122.805944) (end 125.5 123) (width 0.3) (layer F.Cu) (net 14))
  (via (at 125.5 123) (size 0.46) (drill 0.2) (layers F.Cu B.Cu) (net 14))
  (segment (start 125.305944 119.155944) (end 125.305944 119.748649) (width 0.3) (layer F.Cu) (net 14))
  (segment (start 125.1 118.95) (end 125.305944 119.155944) (width 0.3) (layer F.Cu) (net 14))
  (segment (start 123.95 118.95) (end 125.1 118.95) (width 0.3) (layer F.Cu) (net 14))
  (segment (start 126.95 140.45) (end 128.45 140.45) (width 0.3) (layer F.Cu) (net 15))
  (segment (start 128.45 140.45) (end 130 142) (width 0.3) (layer F.Cu) (net 15))
  (segment (start 126.95 138.8) (end 126.95 140.45) (width 0.3) (layer F.Cu) (net 15))
  (segment (start 126.95 138.8) (end 128.3 138.8) (width 0.36) (layer F.Cu) (net 15))
  (segment (start 128.3 138.8) (end 128.6 138.5) (width 0.36) (layer F.Cu) (net 15))
  (segment (start 130.3 137.1) (end 130.5 137.3) (width 0.36) (layer F.Cu) (net 15))
  (segment (start 130.5 137.3) (end 130.5 138.5) (width 0.36) (layer F.Cu) (net 15))
  (segment (start 129.14 137.1) (end 130.3 137.1) (width 0.36) (layer F.Cu) (net 15))
  (segment (start 128.6 138.5) (end 128.6 137.64) (width 0.36) (layer F.Cu) (net 15))
  (segment (start 128.6 137.64) (end 129.14 137.1) (width 0.36) (layer F.Cu) (net 15))
  (segment (start 122.1 138.8) (end 122.05 138.8) (width 0.3) (layer F.Cu) (net 16))
  (segment (start 122.05 138.8) (end 117.85 143) (width 0.3) (layer F.Cu) (net 16))
  (segment (start 117.85 143) (end 115.5 143) (width 0.3) (layer F.Cu) (net 16))
  (segment (start 123.95 120.55) (end 123.95 121.35) (width 0.3) (layer F.Cu) (net 17))
  (segment (start 124.5 138.95) (end 124.45 138.95) (width 0.3) (layer F.Cu) (net 21))
  (segment (start 124.45 138.95) (end 120.5 142.9) (width 0.3) (layer F.Cu) (net 21))
  (segment (start 120.5 142.9) (end 120.5 143) (width 0.3) (layer F.Cu) (net 21))

  (zone (net 1) (net_name GND) (layer In1.Cu) (tstamp 533087B2) (hatch edge 0.508)
    (connect_pads yes (clearance 0.25))
    (min_thickness 0.15)
    (fill yes (arc_segments 16) (thermal_gap 0.3) (thermal_bridge_width 0.3))
    (polygon
      (pts
        (xy 114.5 118.5) (xy 132 118.5) (xy 132 146) (xy 114.5 146)
      )
    )
    (filled_polygon
      (pts
        (xy 131.6 125) (xy 131.630448 125.153073) (xy 131.717157 125.282843) (xy 131.846927 125.369552) (xy 131.925 125.385082)
        (xy 131.925 126.614918) (xy 131.846927 126.630448) (xy 131.717157 126.717157) (xy 131.630448 126.846927) (xy 131.6 127)
        (xy 131.6 145.925) (xy 114.9 145.925) (xy 114.9 143.914851) (xy 115.285231 144.074813) (xy 115.712893 144.075186)
        (xy 116.108143 143.911872) (xy 116.410809 143.609733) (xy 116.574813 143.214769) (xy 116.574814 143.212893) (xy 119.424814 143.212893)
        (xy 119.588128 143.608143) (xy 119.890267 143.910809) (xy 120.285231 144.074813) (xy 120.712893 144.075186) (xy 121.108143 143.911872)
        (xy 121.410809 143.609733) (xy 121.574813 143.214769) (xy 121.575186 142.787107) (xy 121.411872 142.391857) (xy 121.23322 142.212893)
        (xy 128.924814 142.212893) (xy 129.088128 142.608143) (xy 129.390267 142.910809) (xy 129.785231 143.074813) (xy 130.212893 143.075186)
        (xy 130.608143 142.911872) (xy 130.910809 142.609733) (xy 131.074813 142.214769) (xy 131.075186 141.787107) (xy 130.911872 141.391857)
        (xy 130.609733 141.089191) (xy 130.214769 140.925187) (xy 129.787107 140.924814) (xy 129.391857 141.088128) (xy 129.089191 141.390267)
        (xy 128.925187 141.785231) (xy 128.924814 142.212893) (xy 121.23322 142.212893) (xy 121.109733 142.089191) (xy 120.714769 141.925187)
        (xy 120.287107 141.924814) (xy 119.891857 142.088128) (xy 119.589191 142.390267) (xy 119.425187 142.785231) (xy 119.424814 143.212893)
        (xy 116.574814 143.212893) (xy 116.575186 142.787107) (xy 116.411872 142.391857) (xy 116.109733 142.089191) (xy 115.714769 141.925187)
        (xy 115.287107 141.924814) (xy 114.9 142.084763) (xy 114.9 140.712893) (xy 116.924814 140.712893) (xy 117.088128 141.108143)
        (xy 117.390267 141.410809) (xy 117.785231 141.574813) (xy 118.212893 141.575186) (xy 118.608143 141.411872) (xy 118.910809 141.109733)
        (xy 119.074813 140.714769) (xy 119.075186 140.287107) (xy 118.911872 139.891857) (xy 118.609733 139.589191) (xy 118.214769 139.425187)
        (xy 117.787107 139.424814) (xy 117.391857 139.588128) (xy 117.089191 139.890267) (xy 116.925187 140.285231) (xy 116.924814 140.712893)
        (xy 114.9 140.712893) (xy 114.9 136.459912) (xy 116.294904 136.459912) (xy 116.37922 136.663971) (xy 116.535207 136.820232)
        (xy 116.739119 136.904903) (xy 116.959912 136.905096) (xy 117.163971 136.82078) (xy 117.320232 136.664793) (xy 117.404903 136.460881)
        (xy 117.404991 136.359912) (xy 118.094904 136.359912) (xy 118.17922 136.563971) (xy 118.335207 136.720232) (xy 118.539119 136.804903)
        (xy 118.759912 136.805096) (xy 118.963971 136.72078) (xy 119.120232 136.564793) (xy 119.204903 136.360881) (xy 119.205096 136.140088)
        (xy 119.12078 135.936029) (xy 119.094709 135.909912) (xy 125.544904 135.909912) (xy 125.62922 136.113971) (xy 125.785207 136.270232)
        (xy 125.989119 136.354903) (xy 126.209912 136.355096) (xy 126.413971 136.27078) (xy 126.570232 136.114793) (xy 126.654903 135.910881)
        (xy 126.655096 135.690088) (xy 126.57078 135.486029) (xy 126.414793 135.329768) (xy 126.210881 135.245097) (xy 125.990088 135.244904)
        (xy 125.786029 135.32922) (xy 125.629768 135.485207) (xy 125.545097 135.689119) (xy 125.544904 135.909912) (xy 119.094709 135.909912)
        (xy 118.964793 135.779768) (xy 118.760881 135.695097) (xy 118.540088 135.694904) (xy 118.336029 135.77922) (xy 118.179768 135.935207)
        (xy 118.095097 136.139119) (xy 118.094904 136.359912) (xy 117.404991 136.359912) (xy 117.405096 136.240088) (xy 117.32078 136.036029)
        (xy 117.164793 135.879768) (xy 116.960881 135.795097) (xy 116.740088 135.794904) (xy 116.536029 135.87922) (xy 116.379768 136.035207)
        (xy 116.295097 136.239119) (xy 116.294904 136.459912) (xy 114.9 136.459912) (xy 114.9 135.109912) (xy 118.094904 135.109912)
        (xy 118.17922 135.313971) (xy 118.335207 135.470232) (xy 118.539119 135.554903) (xy 118.759912 135.555096) (xy 118.963971 135.47078)
        (xy 119.120232 135.314793) (xy 119.204903 135.110881) (xy 119.205096 134.890088) (xy 119.12078 134.686029) (xy 118.964793 134.529768)
        (xy 118.760881 134.445097) (xy 118.540088 134.444904) (xy 118.336029 134.52922) (xy 118.179768 134.685207) (xy 118.095097 134.889119)
        (xy 118.094904 135.109912) (xy 114.9 135.109912) (xy 114.9 129.609912) (xy 124.944904 129.609912) (xy 125.02922 129.813971)
        (xy 125.185207 129.970232) (xy 125.389119 130.054903) (xy 125.609912 130.055096) (xy 125.813971 129.97078) (xy 125.970232 129.814793)
        (xy 126.054903 129.610881) (xy 126.055096 129.390088) (xy 125.97078 129.186029) (xy 125.814793 129.029768) (xy 125.610881 128.945097)
        (xy 125.390088 128.944904) (xy 125.186029 129.02922) (xy 125.029768 129.185207) (xy 124.945097 129.389119) (xy 124.944904 129.609912)
        (xy 114.9 129.609912) (xy 114.9 127) (xy 114.869552 126.846927) (xy 114.782843 126.717157) (xy 114.653073 126.630448)
        (xy 114.575 126.614918) (xy 114.575 125.385082) (xy 114.653073 125.369552) (xy 114.782843 125.282843) (xy 114.869552 125.153073)
        (xy 114.9 125) (xy 114.9 123.109912) (xy 120.794904 123.109912) (xy 120.87922 123.313971) (xy 121.035207 123.470232)
        (xy 121.239119 123.554903) (xy 121.459912 123.555096) (xy 121.663971 123.47078) (xy 121.820232 123.314793) (xy 121.904903 123.110881)
        (xy 121.904903 123.109912) (xy 124.944904 123.109912) (xy 125.02922 123.313971) (xy 125.185207 123.470232) (xy 125.389119 123.554903)
        (xy 125.609912 123.555096) (xy 125.813971 123.47078) (xy 125.970232 123.314793) (xy 126.054903 123.110881) (xy 126.055096 122.890088)
        (xy 125.97078 122.686029) (xy 125.814793 122.529768) (xy 125.610881 122.445097) (xy 125.390088 122.444904) (xy 125.186029 122.52922)
        (xy 125.029768 122.685207) (xy 124.945097 122.889119) (xy 124.944904 123.109912) (xy 121.904903 123.109912) (xy 121.905096 122.890088)
        (xy 121.82078 122.686029) (xy 121.664793 122.529768) (xy 121.460881 122.445097) (xy 121.240088 122.444904) (xy 121.036029 122.52922)
        (xy 120.879768 122.685207) (xy 120.795097 122.889119) (xy 120.794904 123.109912) (xy 114.9 123.109912) (xy 114.9 118.575)
        (xy 131.6 118.575)
      )
    )
  )
  (zone (net 1) (net_name GND) (layer In2.Cu) (tstamp 56959932) (hatch edge 0.508)
    (connect_pads yes (clearance 0.25))
    (min_thickness 0.2)
    (fill yes (arc_segments 16) (thermal_gap 0.3) (thermal_bridge_width 0.3))
    (polygon
      (pts
        (xy 114.5 118.5) (xy 132 118.5) (xy 132 146) (xy 114.5 146)
      )
    )
    (filled_polygon
      (pts
        (xy 131.575 125) (xy 131.607351 125.16264) (xy 131.69948 125.30052) (xy 131.83736 125.392649) (xy 131.9 125.405109)
        (xy 131.9 126.594891) (xy 131.83736 126.607351) (xy 131.69948 126.69948) (xy 131.607351 126.83736) (xy 131.575 127)
        (xy 131.575 145.9) (xy 114.925 145.9) (xy 114.925 143.952301) (xy 115.280237 144.099808) (xy 115.717844 144.10019)
        (xy 116.122286 143.933078) (xy 116.431991 143.623913) (xy 116.599808 143.219763) (xy 116.599809 143.217844) (xy 119.39981 143.217844)
        (xy 119.566922 143.622286) (xy 119.876087 143.931991) (xy 120.280237 144.099808) (xy 120.717844 144.10019) (xy 121.122286 143.933078)
        (xy 121.431991 143.623913) (xy 121.599808 143.219763) (xy 121.60019 142.782156) (xy 121.433078 142.377714) (xy 121.273487 142.217844)
        (xy 128.89981 142.217844) (xy 129.066922 142.622286) (xy 129.376087 142.931991) (xy 129.780237 143.099808) (xy 130.217844 143.10019)
        (xy 130.622286 142.933078) (xy 130.931991 142.623913) (xy 131.099808 142.219763) (xy 131.10019 141.782156) (xy 130.933078 141.377714)
        (xy 130.623913 141.068009) (xy 130.219763 140.900192) (xy 129.782156 140.89981) (xy 129.377714 141.066922) (xy 129.068009 141.376087)
        (xy 128.900192 141.780237) (xy 128.89981 142.217844) (xy 121.273487 142.217844) (xy 121.123913 142.068009) (xy 120.719763 141.900192)
        (xy 120.282156 141.89981) (xy 119.877714 142.066922) (xy 119.568009 142.376087) (xy 119.400192 142.780237) (xy 119.39981 143.217844)
        (xy 116.599809 143.217844) (xy 116.60019 142.782156) (xy 116.433078 142.377714) (xy 116.123913 142.068009) (xy 115.719763 141.900192)
        (xy 115.282156 141.89981) (xy 114.925 142.047384) (xy 114.925 136.7) (xy 116 136.7) (xy 116 141)
        (xy 116.013312 141.066922) (xy 116.03806 141.191342) (xy 116.146447 141.353553) (xy 117.146447 142.353554) (xy 117.243686 142.418526)
        (xy 117.308658 142.46194) (xy 117.5 142.5) (xy 118.5 142.5) (xy 118.691342 142.46194) (xy 118.853553 142.353553)
        (xy 124.907106 136.3) (xy 125.791707 136.3) (xy 125.984125 136.379899) (xy 126.214863 136.380101) (xy 126.428114 136.291987)
        (xy 126.591413 136.128973) (xy 126.679899 135.915875) (xy 126.680101 135.685137) (xy 126.591987 135.471886) (xy 126.428973 135.308587)
        (xy 126.215875 135.220101) (xy 125.985137 135.219899) (xy 125.791279 135.3) (xy 124.7 135.3) (xy 124.508658 135.33806)
        (xy 124.346447 135.446447) (xy 119.099831 140.693063) (xy 119.10019 140.282156) (xy 118.933078 139.877714) (xy 118.623913 139.568009)
        (xy 118.5 139.516556) (xy 118.5 136.815729) (xy 118.534125 136.829899) (xy 118.764863 136.830101) (xy 118.978114 136.741987)
        (xy 119.141413 136.578973) (xy 119.229899 136.365875) (xy 119.230101 136.135137) (xy 119.15 135.941279) (xy 119.15 135.308293)
        (xy 119.229899 135.115875) (xy 119.230101 134.885137) (xy 119.141987 134.671886) (xy 118.978973 134.508587) (xy 118.765875 134.420101)
        (xy 118.535137 134.419899) (xy 118.5 134.434417) (xy 118.5 134.307106) (xy 120.803553 132.003554) (xy 120.91194 131.841342)
        (xy 120.95 131.65) (xy 120.95 124.107106) (xy 121.485556 123.571551) (xy 121.678114 123.491987) (xy 121.841413 123.328973)
        (xy 121.929899 123.115875) (xy 121.929899 123.114863) (xy 124.919899 123.114863) (xy 125.008013 123.328114) (xy 125.171027 123.491413)
        (xy 125.364745 123.571852) (xy 125.5 123.707107) (xy 125.5 128.792893) (xy 125.364445 128.928449) (xy 125.171886 129.008013)
        (xy 125.008587 129.171027) (xy 124.920101 129.384125) (xy 124.919899 129.614863) (xy 125.008013 129.828114) (xy 125.171027 129.991413)
        (xy 125.384125 130.079899) (xy 125.614863 130.080101) (xy 125.828114 129.991987) (xy 125.991413 129.828973) (xy 126.071852 129.635255)
        (xy 126.353554 129.353553) (xy 126.46194 129.191342) (xy 126.5 129) (xy 126.5 123.5) (xy 126.46194 123.308658)
        (xy 126.353554 123.146447) (xy 126.071551 122.864445) (xy 125.991987 122.671886) (xy 125.828973 122.508587) (xy 125.615875 122.420101)
        (xy 125.385137 122.419899) (xy 125.171886 122.508013) (xy 125.008587 122.671027) (xy 124.920101 122.884125) (xy 124.919899 123.114863)
        (xy 121.929899 123.114863) (xy 121.930101 122.885137) (xy 121.841987 122.671886) (xy 121.678973 122.508587) (xy 121.465875 122.420101)
        (xy 121.235137 122.419899) (xy 121.021886 122.508013) (xy 120.858587 122.671027) (xy 120.778148 122.864745) (xy 120.096447 123.546447)
        (xy 119.98806 123.708658) (xy 119.95 123.9) (xy 119.95 131.442893) (xy 117.646447 133.746447) (xy 117.53806 133.908658)
        (xy 117.5 134.1) (xy 117.5 139.516394) (xy 117.377714 139.566922) (xy 117.068009 139.876087) (xy 117 140.039872)
        (xy 117 136.915583) (xy 117.178114 136.841987) (xy 117.341413 136.678973) (xy 117.429899 136.465875) (xy 117.430101 136.235137)
        (xy 117.341987 136.021886) (xy 117.178973 135.858587) (xy 116.965875 135.770101) (xy 116.735137 135.769899) (xy 116.521886 135.858013)
        (xy 116.358587 136.021027) (xy 116.278148 136.214746) (xy 116.146447 136.346447) (xy 116.03806 136.508658) (xy 116 136.7)
        (xy 114.925 136.7) (xy 114.925 127) (xy 114.892649 126.83736) (xy 114.80052 126.69948) (xy 114.66264 126.607351)
        (xy 114.6 126.594891) (xy 114.6 125.405109) (xy 114.66264 125.392649) (xy 114.80052 125.30052) (xy 114.892649 125.16264)
        (xy 114.925 125) (xy 114.925 118.6) (xy 131.575 118.6)
      )
    )
  )
  (zone (net 1) (net_name GND) (layer B.Cu) (tstamp 581E44FF) (hatch edge 0.508)
    (connect_pads yes (clearance 0.25))
    (min_thickness 0.15)
    (fill yes (arc_segments 16) (thermal_gap 0.3) (thermal_bridge_width 0.3))
    (polygon
      (pts
        (xy 114.5 118.5) (xy 132 118.5) (xy 132 146) (xy 114.5 146)
      )
    )
    (filled_polygon
      (pts
        (xy 131.6 125) (xy 131.630448 125.153073) (xy 131.717157 125.282843) (xy 131.846927 125.369552) (xy 131.925 125.385082)
        (xy 131.925 126.614918) (xy 131.846927 126.630448) (xy 131.717157 126.717157) (xy 131.630448 126.846927) (xy 131.6 127)
        (xy 131.6 145.925) (xy 114.9 145.925) (xy 114.9 143.914851) (xy 115.285231 144.074813) (xy 115.712893 144.075186)
        (xy 116.108143 143.911872) (xy 116.410809 143.609733) (xy 116.574813 143.214769) (xy 116.574814 143.212893) (xy 119.424814 143.212893)
        (xy 119.588128 143.608143) (xy 119.890267 143.910809) (xy 120.285231 144.074813) (xy 120.712893 144.075186) (xy 121.108143 143.911872)
        (xy 121.410809 143.609733) (xy 121.574813 143.214769) (xy 121.575186 142.787107) (xy 121.411872 142.391857) (xy 121.23322 142.212893)
        (xy 128.924814 142.212893) (xy 129.088128 142.608143) (xy 129.390267 142.910809) (xy 129.785231 143.074813) (xy 130.212893 143.075186)
        (xy 130.608143 142.911872) (xy 130.910809 142.609733) (xy 131.074813 142.214769) (xy 131.075186 141.787107) (xy 130.911872 141.391857)
        (xy 130.609733 141.089191) (xy 130.214769 140.925187) (xy 129.787107 140.924814) (xy 129.391857 141.088128) (xy 129.089191 141.390267)
        (xy 128.925187 141.785231) (xy 128.924814 142.212893) (xy 121.23322 142.212893) (xy 121.109733 142.089191) (xy 120.714769 141.925187)
        (xy 120.287107 141.924814) (xy 119.891857 142.088128) (xy 119.589191 142.390267) (xy 119.425187 142.785231) (xy 119.424814 143.212893)
        (xy 116.574814 143.212893) (xy 116.575186 142.787107) (xy 116.411872 142.391857) (xy 116.109733 142.089191) (xy 115.714769 141.925187)
        (xy 115.287107 141.924814) (xy 114.9 142.084763) (xy 114.9 140.712893) (xy 116.924814 140.712893) (xy 117.088128 141.108143)
        (xy 117.390267 141.410809) (xy 117.785231 141.574813) (xy 118.212893 141.575186) (xy 118.608143 141.411872) (xy 118.910809 141.109733)
        (xy 119.074813 140.714769) (xy 119.075186 140.287107) (xy 118.911872 139.891857) (xy 118.609733 139.589191) (xy 118.214769 139.425187)
        (xy 117.787107 139.424814) (xy 117.391857 139.588128) (xy 117.089191 139.890267) (xy 116.925187 140.285231) (xy 116.924814 140.712893)
        (xy 114.9 140.712893) (xy 114.9 136.459912) (xy 116.294904 136.459912) (xy 116.37922 136.663971) (xy 116.535207 136.820232)
        (xy 116.739119 136.904903) (xy 116.959912 136.905096) (xy 117.163971 136.82078) (xy 117.320232 136.664793) (xy 117.404903 136.460881)
        (xy 117.404991 136.359912) (xy 118.094904 136.359912) (xy 118.17922 136.563971) (xy 118.335207 136.720232) (xy 118.539119 136.804903)
        (xy 118.759912 136.805096) (xy 118.963971 136.72078) (xy 119.120232 136.564793) (xy 119.204903 136.360881) (xy 119.205096 136.140088)
        (xy 119.12078 135.936029) (xy 119.094709 135.909912) (xy 125.544904 135.909912) (xy 125.62922 136.113971) (xy 125.785207 136.270232)
        (xy 125.989119 136.354903) (xy 126.209912 136.355096) (xy 126.413971 136.27078) (xy 126.570232 136.114793) (xy 126.654903 135.910881)
        (xy 126.655096 135.690088) (xy 126.57078 135.486029) (xy 126.414793 135.329768) (xy 126.210881 135.245097) (xy 125.990088 135.244904)
        (xy 125.786029 135.32922) (xy 125.629768 135.485207) (xy 125.545097 135.689119) (xy 125.544904 135.909912) (xy 119.094709 135.909912)
        (xy 118.964793 135.779768) (xy 118.760881 135.695097) (xy 118.540088 135.694904) (xy 118.336029 135.77922) (xy 118.179768 135.935207)
        (xy 118.095097 136.139119) (xy 118.094904 136.359912) (xy 117.404991 136.359912) (xy 117.405096 136.240088) (xy 117.32078 136.036029)
        (xy 117.164793 135.879768) (xy 116.960881 135.795097) (xy 116.740088 135.794904) (xy 116.536029 135.87922) (xy 116.379768 136.035207)
        (xy 116.295097 136.239119) (xy 116.294904 136.459912) (xy 114.9 136.459912) (xy 114.9 135.109912) (xy 118.094904 135.109912)
        (xy 118.17922 135.313971) (xy 118.335207 135.470232) (xy 118.539119 135.554903) (xy 118.759912 135.555096) (xy 118.963971 135.47078)
        (xy 119.120232 135.314793) (xy 119.204903 135.110881) (xy 119.205096 134.890088) (xy 119.12078 134.686029) (xy 118.964793 134.529768)
        (xy 118.760881 134.445097) (xy 118.540088 134.444904) (xy 118.336029 134.52922) (xy 118.179768 134.685207) (xy 118.095097 134.889119)
        (xy 118.094904 135.109912) (xy 114.9 135.109912) (xy 114.9 129.609912) (xy 124.944904 129.609912) (xy 125.02922 129.813971)
        (xy 125.185207 129.970232) (xy 125.389119 130.054903) (xy 125.609912 130.055096) (xy 125.813971 129.97078) (xy 125.970232 129.814793)
        (xy 126.054903 129.610881) (xy 126.055096 129.390088) (xy 125.97078 129.186029) (xy 125.814793 129.029768) (xy 125.610881 128.945097)
        (xy 125.390088 128.944904) (xy 125.186029 129.02922) (xy 125.029768 129.185207) (xy 124.945097 129.389119) (xy 124.944904 129.609912)
        (xy 114.9 129.609912) (xy 114.9 127) (xy 114.869552 126.846927) (xy 114.782843 126.717157) (xy 114.653073 126.630448)
        (xy 114.575 126.614918) (xy 114.575 125.385082) (xy 114.653073 125.369552) (xy 114.782843 125.282843) (xy 114.869552 125.153073)
        (xy 114.9 125) (xy 114.9 123.109912) (xy 120.794904 123.109912) (xy 120.87922 123.313971) (xy 121.035207 123.470232)
        (xy 121.239119 123.554903) (xy 121.459912 123.555096) (xy 121.663971 123.47078) (xy 121.820232 123.314793) (xy 121.904903 123.110881)
        (xy 121.904903 123.109912) (xy 124.944904 123.109912) (xy 125.02922 123.313971) (xy 125.185207 123.470232) (xy 125.389119 123.554903)
        (xy 125.609912 123.555096) (xy 125.813971 123.47078) (xy 125.970232 123.314793) (xy 126.054903 123.110881) (xy 126.055096 122.890088)
        (xy 125.97078 122.686029) (xy 125.814793 122.529768) (xy 125.610881 122.445097) (xy 125.390088 122.444904) (xy 125.186029 122.52922)
        (xy 125.029768 122.685207) (xy 124.945097 122.889119) (xy 124.944904 123.109912) (xy 121.904903 123.109912) (xy 121.905096 122.890088)
        (xy 121.82078 122.686029) (xy 121.664793 122.529768) (xy 121.460881 122.445097) (xy 121.240088 122.444904) (xy 121.036029 122.52922)
        (xy 120.879768 122.685207) (xy 120.795097 122.889119) (xy 120.794904 123.109912) (xy 114.9 123.109912) (xy 114.9 118.575)
        (xy 131.6 118.575)
      )
    )
  )
  (zone (net 1) (net_name GND) (layer F.Cu) (tstamp 0) (hatch edge 0.508)
    (connect_pads yes (clearance 0.25))
    (min_thickness 0.15)
    (fill yes (arc_segments 16) (thermal_gap 0.3) (thermal_bridge_width 0.3))
    (polygon
      (pts
        (xy 119.5 119.5) (xy 127 119.5) (xy 127 132.5) (xy 119.5 132.5)
      )
    )
    (filled_polygon
      (pts
        (xy 124.830944 120.425) (xy 124.506367 120.425) (xy 124.506367 120.4) (xy 124.483705 120.279562) (xy 124.412526 120.168947)
        (xy 124.30392 120.09474) (xy 124.175 120.068633) (xy 123.725 120.068633) (xy 123.604562 120.091295) (xy 123.493947 120.162474)
        (xy 123.41974 120.27108) (xy 123.393633 120.4) (xy 123.393633 120.425) (xy 123 120.425) (xy 122.972741 120.430129)
        (xy 122.947705 120.446239) (xy 122.930909 120.470821) (xy 122.925 120.5) (xy 122.925 123.244231) (xy 122.900885 123.259748)
        (xy 122.87892 123.24474) (xy 122.75 123.218633) (xy 122.427594 123.218633) (xy 122.431367 123.2) (xy 122.431367 122.8)
        (xy 122.408705 122.679562) (xy 122.337526 122.568947) (xy 122.22892 122.49474) (xy 122.1 122.468633) (xy 121.6 122.468633)
        (xy 121.54327 122.479308) (xy 121.460881 122.445097) (xy 121.240088 122.444904) (xy 121.036029 122.52922) (xy 120.879768 122.685207)
        (xy 120.795097 122.889119) (xy 120.794904 123.109912) (xy 120.87922 123.313971) (xy 121.035207 123.470232) (xy 121.239119 123.554903)
        (xy 121.318633 123.554973) (xy 121.318633 124.25) (xy 121.341295 124.370438) (xy 121.412474 124.481053) (xy 121.52108 124.55526)
        (xy 121.65 124.581367) (xy 122.05 124.581367) (xy 122.170438 124.558705) (xy 122.199115 124.540252) (xy 122.22108 124.55526)
        (xy 122.35 124.581367) (xy 122.75 124.581367) (xy 122.870438 124.558705) (xy 122.899115 124.540252) (xy 122.92108 124.55526)
        (xy 123.05 124.581367) (xy 123.45 124.581367) (xy 123.570438 124.558705) (xy 123.599115 124.540252) (xy 123.62108 124.55526)
        (xy 123.75 124.581367) (xy 124.15 124.581367) (xy 124.270438 124.558705) (xy 124.381053 124.487526) (xy 124.45526 124.37892)
        (xy 124.481367 124.25) (xy 124.481367 123.575) (xy 125 123.575) (xy 125.027259 123.569871) (xy 125.052295 123.553761)
        (xy 125.069091 123.529179) (xy 125.075 123.5) (xy 125.075 123.359831) (xy 125.185207 123.470232) (xy 125.389119 123.554903)
        (xy 125.609912 123.555096) (xy 125.813971 123.47078) (xy 125.970232 123.314793) (xy 126.054903 123.110881) (xy 126.055096 122.890088)
        (xy 125.97078 122.686029) (xy 125.814793 122.529768) (xy 125.780944 122.515713) (xy 125.780944 119.575) (xy 126.925 119.575)
        (xy 126.925 125.51) (xy 125.851254 125.51) (xy 125.82892 125.49474) (xy 125.7 125.468633) (xy 125 125.468633)
        (xy 124.879562 125.491295) (xy 124.768947 125.562474) (xy 124.69474 125.67108) (xy 124.668633 125.8) (xy 124.668633 126.2)
        (xy 124.691295 126.320438) (xy 124.762474 126.431053) (xy 124.87108 126.50526) (xy 125 126.531367) (xy 125.7 126.531367)
        (xy 125.820438 126.508705) (xy 125.849506 126.49) (xy 126.925 126.49) (xy 126.925 132.425) (xy 124.848595 132.425)
        (xy 124.812526 132.368947) (xy 124.775 132.343307) (xy 124.775 131.396752) (xy 125.835876 130.335876) (xy 125.938843 130.181775)
        (xy 125.975 130) (xy 125.975 129.80331) (xy 126.054903 129.610881) (xy 126.055096 129.390088) (xy 125.97078 129.186029)
        (xy 125.814793 129.029768) (xy 125.610881 128.945097) (xy 125.390088 128.944904) (xy 125.186029 129.02922) (xy 125.029768 129.185207)
        (xy 124.945097 129.389119) (xy 124.944904 129.609912) (xy 125.024851 129.803397) (xy 123.964124 130.864124) (xy 123.861157 131.018225)
        (xy 123.825 131.2) (xy 123.825 132.342492) (xy 123.793947 132.362474) (xy 123.751225 132.425) (xy 123.475 132.425)
        (xy 123.475 131.5) (xy 123.438843 131.318225) (xy 123.335876 131.164124) (xy 123.025 130.853248) (xy 123.025 128.776304)
        (xy 123.05 128.781367) (xy 123.372406 128.781367) (xy 123.368633 128.8) (xy 123.368633 129.2) (xy 123.391295 129.320438)
        (xy 123.462474 129.431053) (xy 123.57108 129.50526) (xy 123.7 129.531367) (xy 124.2 129.531367) (xy 124.320438 129.508705)
        (xy 124.431053 129.437526) (xy 124.50526 129.32892) (xy 124.531367 129.2) (xy 124.531367 128.8) (xy 124.508705 128.679562)
        (xy 124.449432 128.58745) (xy 124.45526 128.57892) (xy 124.481367 128.45) (xy 124.481367 127.75) (xy 124.458705 127.629562)
        (xy 124.387526 127.518947) (xy 124.27892 127.44474) (xy 124.15 127.418633) (xy 123.75 127.418633) (xy 123.629562 127.441295)
        (xy 123.600885 127.459748) (xy 123.57892 127.44474) (xy 123.45 127.418633) (xy 123.05 127.418633) (xy 122.929562 127.441295)
        (xy 122.900885 127.459748) (xy 122.87892 127.44474) (xy 122.75 127.418633) (xy 122.35 127.418633) (xy 122.229562 127.441295)
        (xy 122.118947 127.512474) (xy 122.04474 127.62108) (xy 122.018633 127.75) (xy 122.018633 128.45) (xy 122.041295 128.570438)
        (xy 122.075 128.622817) (xy 122.075 131.05) (xy 122.111157 131.231775) (xy 122.214124 131.385876) (xy 122.525 131.696752)
        (xy 122.525 132.425) (xy 119.575 132.425) (xy 119.575 126.49) (xy 120.648746 126.49) (xy 120.67108 126.50526)
        (xy 120.8 126.531367) (xy 121.5 126.531367) (xy 121.620438 126.508705) (xy 121.731053 126.437526) (xy 121.80526 126.32892)
        (xy 121.831367 126.2) (xy 121.831367 125.8) (xy 121.808705 125.679562) (xy 121.737526 125.568947) (xy 121.62892 125.49474)
        (xy 121.5 125.468633) (xy 120.8 125.468633) (xy 120.679562 125.491295) (xy 120.650494 125.51) (xy 119.575 125.51)
        (xy 119.575 119.575) (xy 124.830944 119.575)
      )
    )
  )
  (zone (net 0) (net_name "") (layer F.Cu) (tstamp 0) (hatch edge 0.508)
    (connect_pads yes (clearance 0.25))
    (min_thickness 0.15)
    (keepout (tracks allowed) (vias allowed) (copperpour not_allowed))
    (fill yes (arc_segments 16) (thermal_gap 0.3) (thermal_bridge_width 0.3))
    (polygon
      (pts
        (xy 123 120.5) (xy 125 120.5) (xy 125 123.5) (xy 123 123.5)
      )
    )
  )
  (zone (net 0) (net_name "") (layer B.Mask) (tstamp 0) (hatch edge 0.508)
    (connect_pads yes (clearance 0.25))
    (min_thickness 0.15)
    (fill yes (arc_segments 16) (thermal_gap 0.3) (thermal_bridge_width 0.3))
    (polygon
      (pts
        (xy 120 123.5) (xy 126.5 123.5) (xy 126.5 129) (xy 120 129)
      )
    )
    (filled_polygon
      (pts
        (xy 126.425 128.925) (xy 120.075 128.925) (xy 120.075 123.575) (xy 126.425 123.575)
      )
    )
  )
)
