EESchema Schematic File Version 4
EELAYER 29 0
EELAYER END
$Descr A4 11693 8268
encoding utf-8
Sheet 1 1
Title ""
Date ""
Rev ""
Comp ""
Comment1 ""
Comment2 ""
Comment3 ""
Comment4 ""
$EndDescr
$Comp
L connector:Rosenberger_Probe_8 J1
U 1 1 5C5CBD38
P 3200 3050
F 0 "J1" H 3200 3200 50  0000 L CNN
F 1 "Rosenberger_Probe_8" H 3200 3100 50  0000 L CNN
F 2 "kicad_pcb:rosenberger_probe8_nomask" H 3200 3100 50  0001 L CNN
F 3 "" V 3450 3050 50  0000 C CNN
	1    3200 3050
	1    0    0    -1  
$EndComp
$Comp
L connector:Rosenberger_Probe_8 J2
U 1 1 5C5CC14B
P 4800 3050
F 0 "J2" H 4800 3200 50  0000 L CNN
F 1 "Rosenberger_Probe_8" H 4800 3100 50  0000 L CNN
F 2 "kicad_pcb:rosenberger_probe8_nomask" H 4800 3100 50  0001 L CNN
F 3 "" V 5050 3050 50  0000 C CNN
	1    4800 3050
	1    0    0    -1  
$EndComp
$Comp
L combined:ground #PWR0101
U 1 1 5C5CC511
P 3400 3800
F 0 "#PWR0101" H 3400 3800 50  0001 C CNN
F 1 "ground" H 3400 3730 50  0001 C CNN
F 2 "" H 3400 3800 50  0001 C CNN
F 3 "" H 3400 3800 50  0000 C CNN
	1    3400 3800
	1    0    0    -1  
$EndComp
$Comp
L combined:ground #PWR0102
U 1 1 5C5CCC4F
P 5000 3800
F 0 "#PWR0102" H 5000 3800 50  0001 C CNN
F 1 "ground" H 5000 3730 50  0001 C CNN
F 2 "" H 5000 3800 50  0001 C CNN
F 3 "" H 5000 3800 50  0000 C CNN
	1    5000 3800
	1    0    0    -1  
$EndComp
$Comp
L combined:ground #PWR0103
U 1 1 5C5CE29C
P 4700 3600
F 0 "#PWR0103" H 4700 3600 50  0001 C CNN
F 1 "ground" H 4700 3530 50  0001 C CNN
F 2 "" H 4700 3600 50  0001 C CNN
F 3 "" H 4700 3600 50  0000 C CNN
	1    4700 3600
	0    1    1    0   
$EndComp
$Comp
L combined:ground #PWR0104
U 1 1 5C5CE740
P 4700 3250
F 0 "#PWR0104" H 4700 3250 50  0001 C CNN
F 1 "ground" H 4700 3180 50  0001 C CNN
F 2 "" H 4700 3250 50  0001 C CNN
F 3 "" H 4700 3250 50  0000 C CNN
	1    4700 3250
	0    1    1    0   
$EndComp
$Comp
L combined:ground #PWR0105
U 1 1 5C5CEA42
P 3100 3600
F 0 "#PWR0105" H 3100 3600 50  0001 C CNN
F 1 "ground" H 3100 3530 50  0001 C CNN
F 2 "" H 3100 3600 50  0001 C CNN
F 3 "" H 3100 3600 50  0000 C CNN
	1    3100 3600
	0    1    1    0   
$EndComp
$Comp
L combined:ground #PWR0106
U 1 1 5C5CEA4C
P 3100 3250
F 0 "#PWR0106" H 3100 3250 50  0001 C CNN
F 1 "ground" H 3100 3180 50  0001 C CNN
F 2 "" H 3100 3250 50  0001 C CNN
F 3 "" H 3100 3250 50  0000 C CNN
	1    3100 3250
	0    1    1    0   
$EndComp
$Comp
L combined:ground #PWR0107
U 1 1 5C5CF35C
P 3700 3600
F 0 "#PWR0107" H 3700 3600 50  0001 C CNN
F 1 "ground" H 3700 3530 50  0001 C CNN
F 2 "" H 3700 3600 50  0001 C CNN
F 3 "" H 3700 3600 50  0000 C CNN
	1    3700 3600
	0    -1   1    0   
$EndComp
$Comp
L combined:ground #PWR0108
U 1 1 5C5CF366
P 3700 3250
F 0 "#PWR0108" H 3700 3250 50  0001 C CNN
F 1 "ground" H 3700 3180 50  0001 C CNN
F 2 "" H 3700 3250 50  0001 C CNN
F 3 "" H 3700 3250 50  0000 C CNN
	1    3700 3250
	0    -1   1    0   
$EndComp
$Comp
L combined:ground #PWR0109
U 1 1 5C5CFF4C
P 5300 3600
F 0 "#PWR0109" H 5300 3600 50  0001 C CNN
F 1 "ground" H 5300 3530 50  0001 C CNN
F 2 "" H 5300 3600 50  0001 C CNN
F 3 "" H 5300 3600 50  0000 C CNN
	1    5300 3600
	0    -1   1    0   
$EndComp
$Comp
L combined:ground #PWR0110
U 1 1 5C5CFF56
P 5300 3250
F 0 "#PWR0110" H 5300 3250 50  0001 C CNN
F 1 "ground" H 5300 3180 50  0001 C CNN
F 2 "" H 5300 3250 50  0001 C CNN
F 3 "" H 5300 3250 50  0000 C CNN
	1    5300 3250
	0    -1   1    0   
$EndComp
$Comp
L misc:2JQ3B Tl1
U 1 1 5C5D0B91
P 4050 3000
F 0 "Tl1" H 4050 3150 50  0000 L CNN
F 1 "2JQ3B" H 4050 3050 50  0000 L CNN
F 2 "kicad_pcb:LPF_DGS_bowtie_15" H 4350 3050 50  0001 L CNN
F 3 "" V 4300 3000 50  0001 C CNN
	1    4050 3000
	1    0    0    -1  
$EndComp
Wire Wire Line
	4550 3150 4700 3150
Wire Wire Line
	3950 3150 3700 3150
$Comp
L misc:2JQ3B Tl2
U 1 1 5C5D3C97
P 4050 3350
F 0 "Tl2" H 4050 3500 50  0000 L CNN
F 1 "2JQ3B" H 4050 3400 50  0000 L CNN
F 2 "kicad_pcb:LPF_DGS_bowtie_7" H 4350 3400 50  0001 L CNN
F 3 "" V 4300 3350 50  0001 C CNN
	1    4050 3350
	1    0    0    -1  
$EndComp
Wire Wire Line
	4550 3500 4700 3500
Wire Wire Line
	3950 3500 3700 3500
$Comp
L combined:ground #PWR?
U 1 1 5C5D5418
P 3100 3500
F 0 "#PWR?" H 3100 3500 50  0001 C CNN
F 1 "ground" H 3100 3430 50  0001 C CNN
F 2 "" H 3100 3500 50  0001 C CNN
F 3 "" H 3100 3500 50  0000 C CNN
	1    3100 3500
	0    1    1    0   
$EndComp
$Comp
L combined:ground #PWR?
U 1 1 5C5D5422
P 3100 3150
F 0 "#PWR?" H 3100 3150 50  0001 C CNN
F 1 "ground" H 3100 3080 50  0001 C CNN
F 2 "" H 3100 3150 50  0001 C CNN
F 3 "" H 3100 3150 50  0000 C CNN
	1    3100 3150
	0    1    1    0   
$EndComp
$Comp
L combined:ground #PWR?
U 1 1 5C5D57D5
P 5300 3500
F 0 "#PWR?" H 5300 3500 50  0001 C CNN
F 1 "ground" H 5300 3430 50  0001 C CNN
F 2 "" H 5300 3500 50  0001 C CNN
F 3 "" H 5300 3500 50  0000 C CNN
	1    5300 3500
	0    -1   1    0   
$EndComp
$Comp
L combined:ground #PWR?
U 1 1 5C5D57DF
P 5300 3150
F 0 "#PWR?" H 5300 3150 50  0001 C CNN
F 1 "ground" H 5300 3080 50  0001 C CNN
F 2 "" H 5300 3150 50  0001 C CNN
F 3 "" H 5300 3150 50  0000 C CNN
	1    5300 3150
	0    -1   1    0   
$EndComp
$EndSCHEMATC
