EESchema Schematic File Version 4
EELAYER 30 0
EELAYER END
$Descr USLetter 11000 8500
encoding utf-8
Sheet 1 1
Title "LTC2208"
Date "2020-01-31"
Rev "1"
Comp "Harmon Instruments"
Comment1 ""
Comment2 ""
Comment3 ""
Comment4 ""
$EndDescr
$Comp
L misc:BWQDQ S1
U 1 1 5E4F7D90
P 2200 6800
F 0 "S1" H 2830 7043 50  0000 L CNN
F 1 "BWQDQ" H 2400 6800 50  0001 L CNN
F 2 "kicad_pcb:Laird_Technologies_BMI-S-209-F_29.36x18.50mm" H 2400 6900 50  0001 L CNN
F 3 "$PARTS/BWQDQ/drawing.pdf" V 2450 6750 50  0001 C CNN
	1    2200 6800
	1    0    0    -1  
$EndComp
$Comp
L combined:ground #PWR?
U 1 1 5E4F863A
P 2200 6900
AR Path="/5CDB68FA/5E4F863A" Ref="#PWR?"  Part="1" 
AR Path="/5DFE1F9E/5E4F863A" Ref="#PWR?"  Part="1" 
AR Path="/5E4F863A" Ref="#PWR0113"  Part="1" 
F 0 "#PWR0113" H 2200 6900 50  0001 C CNN
F 1 "ground" H 2200 6830 50  0001 C CNN
F 2 "" H 2200 6900 50  0001 C CNN
F 3 "" H 2200 6900 50  0000 C CNN
	1    2200 6900
	-1   0    0    -1  
$EndComp
$Comp
L connector:9432D J2
U 1 1 5E58457C
P 4550 4200
F 0 "J2" H 4504 4438 50  0000 C CNN
F 1 "9432D" H 4504 4347 50  0000 C CNN
F 2 "kicad_pcb:SMA_TH" H 4550 4350 50  0001 C CNN
F 3 "" H 4550 4200 50  0001 C CNN
	1    4550 4200
	-1   0    0    -1  
$EndComp
$Comp
L combined:ground #PWR?
U 1 1 5E5854BB
P 4550 4350
AR Path="/5BE20C19/5E5854BB" Ref="#PWR?"  Part="1" 
AR Path="/5CDB68FA/5E5854BB" Ref="#PWR?"  Part="1" 
AR Path="/5E5854BB" Ref="#PWR0121"  Part="1" 
F 0 "#PWR0121" H 4550 4350 50  0001 C CNN
F 1 "ground" H 4550 4280 50  0001 C CNN
F 2 "" H 4550 4350 50  0001 C CNN
F 3 "" H 4550 4350 50  0000 C CNN
	1    4550 4350
	-1   0    0    -1  
$EndComp
$Comp
L connector:9432D J3
U 1 1 5E629F14
P 6050 4200
F 0 "J3" H 6004 4438 50  0000 C CNN
F 1 "9432D" H 6004 4347 50  0000 C CNN
F 2 "kicad_pcb:SMA_TH" H 6050 4350 50  0001 C CNN
F 3 "" H 6050 4200 50  0001 C CNN
	1    6050 4200
	1    0    0    -1  
$EndComp
$Comp
L combined:ground #PWR?
U 1 1 5E629F1E
P 6050 4350
AR Path="/5BE20C19/5E629F1E" Ref="#PWR?"  Part="1" 
AR Path="/5CDB68FA/5E629F1E" Ref="#PWR?"  Part="1" 
AR Path="/5E629F1E" Ref="#PWR0124"  Part="1" 
F 0 "#PWR0124" H 6050 4350 50  0001 C CNN
F 1 "ground" H 6050 4280 50  0001 C CNN
F 2 "" H 6050 4350 50  0001 C CNN
F 3 "" H 6050 4350 50  0000 C CNN
	1    6050 4350
	1    0    0    -1  
$EndComp
$Comp
L Device:L L1
U 1 1 5F8D6E9F
P 4850 4200
F 0 "L1" H 4902 4246 50  0000 L CNN
F 1 "47 nH" H 4902 4155 50  0000 L CNN
F 2 "kicad_pcb:L_0805_2012Metric" H 4850 4200 50  0001 C CNN
F 3 "~" H 4850 4200 50  0001 C CNN
	1    4850 4200
	0    -1   -1   0   
$EndComp
$Comp
L Device:L L2
U 1 1 5F8D8901
P 5150 4200
F 0 "L2" H 5202 4246 50  0000 L CNN
F 1 "47 nH" H 5202 4155 50  0000 L CNN
F 2 "kicad_pcb:L_0805_2012Metric" H 5150 4200 50  0001 C CNN
F 3 "~" H 5150 4200 50  0001 C CNN
	1    5150 4200
	0    -1   -1   0   
$EndComp
$Comp
L Device:L L3
U 1 1 5F8DC81C
P 5450 4200
F 0 "L3" H 5502 4246 50  0000 L CNN
F 1 "47 nH" H 5502 4155 50  0000 L CNN
F 2 "kicad_pcb:L_0805_2012Metric" H 5450 4200 50  0001 C CNN
F 3 "~" H 5450 4200 50  0001 C CNN
	1    5450 4200
	0    -1   -1   0   
$EndComp
$Comp
L Device:L L4
U 1 1 5F8E5025
P 5750 4200
F 0 "L4" H 5802 4246 50  0000 L CNN
F 1 "47 nH" H 5802 4155 50  0000 L CNN
F 2 "kicad_pcb:L_0805_2012Metric" H 5750 4200 50  0001 C CNN
F 3 "~" H 5750 4200 50  0001 C CNN
	1    5750 4200
	0    -1   -1   0   
$EndComp
$EndSCHEMATC
