(kicad_sch (version 20201015) (generator eeschema)

  (paper "USLetter")

  (title_block
    (date "2021-01-30")
    (company "Harmon Instruments")
  )

  (lib_symbols
    (symbol "connector:connector_coax" (pin_names (offset 1.016) hide) (in_bom yes) (on_board yes)
      (property "Reference" "P" (id 0) (at 0 6.35 0)
        (effects (font (size 1.27 1.27)))
      )
      (property "Value" "connector_coax" (id 1) (at 0 3.81 0)
        (effects (font (size 1.27 1.27)))
      )
      (property "Footprint" "?" (id 2) (at 0 3.81 0)
        (effects (font (size 1.27 1.27)) hide)
      )
      (property "Datasheet" "" (id 3) (at 0 0 0)
        (effects (font (size 1.27 1.27)) hide)
      )
      (symbol "connector_coax_0_1"
        (circle (center 0 0) (radius 0.508) (stroke (width 0.2032)) (fill (type none)))
        (circle (center 0 0) (radius 1.778) (stroke (width 0.3048)) (fill (type none)))
      )
      (symbol "connector_coax_1_1"
        (pin passive line (at -3.81 0 0) (length 3.302)
          (name "In" (effects (font (size 1.016 1.016))))
          (number "1" (effects (font (size 1.016 1.016))))
        )
        (pin passive line (at 0 -5.08 90) (length 3.302)
          (name "Ext" (effects (font (size 1.016 1.016))))
          (number "2" (effects (font (size 1.016 1.016))))
        )
      )
    )
    (symbol "misc:87PWJ" (pin_names (offset 1.016)) (in_bom yes) (on_board yes)
      (property "Reference" "U" (id 0) (at -3.81 7.62 0)
        (effects (font (size 1.27 1.27)) (justify left))
      )
      (property "Value" "87PWJ" (id 1) (at -3.81 5.08 0)
        (effects (font (size 1.27 1.27)) (justify left))
      )
      (property "Footprint" "kicad_pcb:QFN-12-1EP_3x3mm_P0.5mm_EP1.25x1.25mm" (id 2) (at -2.54 1.27 0)
        (effects (font (size 1.27 1.27)) (justify left) hide)
      )
      (property "Datasheet" "${PARTS}/87PWJ/MDB-44H+_dashboard.pdf" (id 3) (at 10.16 -3.81 90)
        (effects (font (size 1.27 1.27)) hide)
      )
      (property "ki_keywords" "MiniCircuits" (id 4) (at 0 0 0)
        (effects (font (size 1.27 1.27)) hide)
      )
      (property "ki_description" "Mixer, MDB-44H+ 10 - 40 GHz" (id 5) (at 0 0 0)
        (effects (font (size 1.27 1.27)) hide)
      )
      (symbol "87PWJ_1_1"
        (circle (center 0 0) (radius 3.81) (stroke (width 0)) (fill (type background)))
        (polyline
          (pts
            (xy -1.27 1.27)
            (xy 1.27 -1.27)
          )
          (stroke (width 0)) (fill (type none))
        )
        (polyline
          (pts
            (xy 1.27 1.27)
            (xy -1.27 -1.27)
          )
          (stroke (width 0)) (fill (type none))
        )
        (pin power_in line (at -2.54 -6.35 90) (length 2.54) hide
          (name "GND" (effects (font (size 1.27 1.27))))
          (number "1" (effects (font (size 1.27 1.27))))
        )
        (pin passive line (at -2.54 -6.35 90) (length 2.54) hide
          (name "GND" (effects (font (size 1.27 1.27))))
          (number "10" (effects (font (size 1.27 1.27))))
        )
        (pin passive line (at -2.54 -6.35 90) (length 2.54) hide
          (name "GND" (effects (font (size 1.27 1.27))))
          (number "11" (effects (font (size 1.27 1.27))))
        )
        (pin passive line (at -2.54 -6.35 90) (length 2.54) hide
          (name "GND" (effects (font (size 1.27 1.27))))
          (number "12" (effects (font (size 1.27 1.27))))
        )
        (pin passive line (at -2.54 -6.35 90) (length 2.54) hide
          (name "GND" (effects (font (size 1.27 1.27))))
          (number "13" (effects (font (size 1.27 1.27))))
        )
        (pin passive line (at -6.35 0 0) (length 2.54)
          (name "L" (effects (font (size 1.27 1.27))))
          (number "5" (effects (font (size 1.27 1.27))))
        )
        (pin passive line (at -2.54 -6.35 90) (length 2.54) hide
          (name "GND" (effects (font (size 1.27 1.27))))
          (number "9" (effects (font (size 1.27 1.27))))
        )
        (pin passive line (at 0 -6.35 90) (length 2.54)
          (name "R" (effects (font (size 1.27 1.27))))
          (number "11" (effects (font (size 1.27 1.27))))
        )
        (pin passive line (at -2.54 -6.35 90) (length 2.54) hide
          (name "GND" (effects (font (size 1.27 1.27))))
          (number "4" (effects (font (size 1.27 1.27))))
        )
        (pin passive line (at -2.54 -6.35 90) (length 2.54) hide
          (name "GND" (effects (font (size 1.27 1.27))))
          (number "3" (effects (font (size 1.27 1.27))))
        )
        (pin passive line (at -2.54 -6.35 90) (length 2.54) hide
          (name "GND" (effects (font (size 1.27 1.27))))
          (number "6" (effects (font (size 1.27 1.27))))
        )
        (pin passive line (at -2.54 -6.35 90) (length 2.54) hide
          (name "GND" (effects (font (size 1.27 1.27))))
          (number "7" (effects (font (size 1.27 1.27))))
        )
        (pin passive line (at -2.54 -6.35 90) (length 2.54) hide
          (name "GND" (effects (font (size 1.27 1.27))))
          (number "8" (effects (font (size 1.27 1.27))))
        )
        (pin passive line (at 6.35 0 180) (length 2.54)
          (name "I" (effects (font (size 1.27 1.27))))
          (number "2" (effects (font (size 1.27 1.27))))
        )
      )
    )
    (symbol "misc:tooling_hole" (pin_numbers hide) (pin_names (offset 1.016) hide) (in_bom yes) (on_board yes)
      (property "Reference" "TH" (id 0) (at 2.54 0 0)
        (effects (font (size 1.27 1.27)) (justify left))
      )
      (property "Value" "tooling_hole" (id 1) (at 3.81 0 0)
        (effects (font (size 1.27 1.27)) (justify left) hide)
      )
      (property "Footprint" "kicad_pcb:tooling_hole_2.55" (id 2) (at 3.81 2.54 0)
        (effects (font (size 1.27 1.27)) (justify left) hide)
      )
      (property "Datasheet" "" (id 3) (at 5.08 5.08 90)
        (effects (font (size 1.27 1.27)) hide)
      )
      (property "ki_description" "Tooling hole for stencil alignment" (id 4) (at 0 0 0)
        (effects (font (size 1.27 1.27)) hide)
      )
      (symbol "tooling_hole_0_0"
        (circle (center 0 0) (radius 1.27) (stroke (width 0)) (fill (type none)))
      )
    )
    (symbol "power:GND" (power) (pin_names (offset 0)) (in_bom yes) (on_board yes)
      (property "Reference" "#PWR" (id 0) (at 0 -6.35 0)
        (effects (font (size 1.27 1.27)) hide)
      )
      (property "Value" "GND" (id 1) (at 0 -3.81 0)
        (effects (font (size 1.27 1.27)))
      )
      (property "Footprint" "" (id 2) (at 0 0 0)
        (effects (font (size 1.27 1.27)) hide)
      )
      (property "Datasheet" "" (id 3) (at 0 0 0)
        (effects (font (size 1.27 1.27)) hide)
      )
      (property "ki_keywords" "power-flag" (id 4) (at 0 0 0)
        (effects (font (size 1.27 1.27)) hide)
      )
      (property "ki_description" "Power symbol creates a global label with name \"GND\" , ground" (id 5) (at 0 0 0)
        (effects (font (size 1.27 1.27)) hide)
      )
      (symbol "GND_0_1"
        (polyline
          (pts
            (xy 0 0)
            (xy 0 -1.27)
            (xy 1.27 -1.27)
            (xy 0 -2.54)
            (xy -1.27 -1.27)
            (xy 0 -1.27)
          )
          (stroke (width 0)) (fill (type none))
        )
      )
      (symbol "GND_1_1"
        (pin power_in line (at 0 0 270) (length 0) hide
          (name "GND" (effects (font (size 1.27 1.27))))
          (number "1" (effects (font (size 1.27 1.27))))
        )
      )
    )
  )


  (label "L" (at 147.32 114.3 180)
    (effects (font (size 1.27 1.27)) (justify right bottom))
  )
  (label "R" (at 153.67 120.65 180)
    (effects (font (size 1.27 1.27)) (justify right bottom))
  )
  (label "I" (at 160.02 114.3 180)
    (effects (font (size 1.27 1.27)) (justify right bottom))
  )

  (symbol (lib_id "misc:tooling_hole") (at 175.26 127 0) (unit 1)
    (in_bom yes) (on_board yes)
    (uuid "fc735fd1-5d90-4f31-ae0f-e29e2bd4544c")
    (property "Reference" "TH1" (id 0) (at 177.1651 127 0)
      (effects (font (size 1.27 1.27)) (justify left))
    )
    (property "Value" "tooling_hole" (id 1) (at 179.07 127 0)
      (effects (font (size 1.27 1.27)) (justify left) hide)
    )
    (property "Footprint" "kicad_pcb:tooling_hole_2.55" (id 2) (at 179.07 124.46 0)
      (effects (font (size 1.27 1.27)) (justify left) hide)
    )
    (property "Datasheet" "" (id 3) (at 180.34 121.92 90)
      (effects (font (size 1.27 1.27)) hide)
    )
  )

  (symbol (lib_id "misc:tooling_hole") (at 175.26 130.81 0) (unit 1)
    (in_bom yes) (on_board yes)
    (uuid "f541f10b-a8b9-40fb-ab83-7319e30b570d")
    (property "Reference" "TH2" (id 0) (at 177.1651 130.81 0)
      (effects (font (size 1.27 1.27)) (justify left))
    )
    (property "Value" "tooling_hole" (id 1) (at 179.07 130.81 0)
      (effects (font (size 1.27 1.27)) (justify left) hide)
    )
    (property "Footprint" "kicad_pcb:tooling_hole_2.55" (id 2) (at 179.07 128.27 0)
      (effects (font (size 1.27 1.27)) (justify left) hide)
    )
    (property "Datasheet" "" (id 3) (at 180.34 125.73 90)
      (effects (font (size 1.27 1.27)) hide)
    )
  )

  (symbol (lib_id "power:GND") (at 143.51 119.38 0) (unit 1)
    (in_bom yes) (on_board yes)
    (uuid "1835423a-d07e-47a6-a3d7-a106d38b2763")
    (property "Reference" "#PWR0109" (id 0) (at 143.51 125.73 0)
      (effects (font (size 1.27 1.27)) hide)
    )
    (property "Value" "GND" (id 1) (at 143.6243 123.7044 0)
      (effects (font (size 1.27 1.27)) hide)
    )
    (property "Footprint" "" (id 2) (at 143.51 119.38 0)
      (effects (font (size 1.27 1.27)) hide)
    )
    (property "Datasheet" "" (id 3) (at 143.51 119.38 0)
      (effects (font (size 1.27 1.27)) hide)
    )
  )

  (symbol (lib_id "power:GND") (at 157.48 125.73 0) (unit 1)
    (in_bom yes) (on_board yes)
    (uuid "28a16bd3-5dd6-4c59-b2c9-385d9821e22a")
    (property "Reference" "#PWR0110" (id 0) (at 157.48 132.08 0)
      (effects (font (size 1.27 1.27)) hide)
    )
    (property "Value" "GND" (id 1) (at 157.5943 130.0544 0)
      (effects (font (size 1.27 1.27)) hide)
    )
    (property "Footprint" "" (id 2) (at 157.48 125.73 0)
      (effects (font (size 1.27 1.27)) hide)
    )
    (property "Datasheet" "" (id 3) (at 157.48 125.73 0)
      (effects (font (size 1.27 1.27)) hide)
    )
  )

  (symbol (lib_id "power:GND") (at 163.83 119.38 0) (unit 1)
    (in_bom yes) (on_board yes)
    (uuid "24adcff0-75fe-4205-bec9-57b4aa6e210c")
    (property "Reference" "#PWR0105" (id 0) (at 163.83 125.73 0)
      (effects (font (size 1.27 1.27)) hide)
    )
    (property "Value" "GND" (id 1) (at 163.9443 123.7044 0)
      (effects (font (size 1.27 1.27)) hide)
    )
    (property "Footprint" "" (id 2) (at 163.83 119.38 0)
      (effects (font (size 1.27 1.27)) hide)
    )
    (property "Datasheet" "" (id 3) (at 163.83 119.38 0)
      (effects (font (size 1.27 1.27)) hide)
    )
  )

  (symbol (lib_id "connector:connector_coax") (at 143.51 114.3 0) (mirror y) (unit 1)
    (in_bom yes) (on_board yes)
    (uuid "5a63ffbf-905d-4e0d-bb69-c6dd4feab97f")
    (property "Reference" "P1" (id 0) (at 143.3703 110.8264 0))
    (property "Value" "connector_coax" (id 1) (at 144.6276 110.5916 0)
      (effects (font (size 1.27 1.27)) hide)
    )
    (property "Footprint" "kicad_pcb:SMA_SW_slot_full" (id 2) (at 143.51 110.49 0)
      (effects (font (size 1.27 1.27)) hide)
    )
    (property "Datasheet" "" (id 3) (at 143.51 114.3 0)
      (effects (font (size 1.27 1.27)) hide)
    )
  )

  (symbol (lib_id "connector:connector_coax") (at 157.48 120.65 0) (unit 1)
    (in_bom yes) (on_board yes)
    (uuid "c7f2f4d4-94da-4745-a9b4-1b8f23fb4ef7")
    (property "Reference" "P2" (id 0) (at 156.2355 117.4559 0)
      (effects (font (size 1.27 1.27)) (justify left))
    )
    (property "Value" "connector_coax" (id 1) (at 160.0454 123.571 0)
      (effects (font (size 1.27 1.27)) (justify left) hide)
    )
    (property "Footprint" "kicad_pcb:SMA_SW_slot_full" (id 2) (at 157.48 116.84 0)
      (effects (font (size 1.27 1.27)) hide)
    )
    (property "Datasheet" "" (id 3) (at 157.48 120.65 0)
      (effects (font (size 1.27 1.27)) hide)
    )
  )

  (symbol (lib_id "connector:connector_coax") (at 163.83 114.3 0) (unit 1)
    (in_bom yes) (on_board yes)
    (uuid "495b4be5-c8fe-41aa-9424-6c54546b7d1d")
    (property "Reference" "P3" (id 0) (at 162.5855 111.1059 0)
      (effects (font (size 1.27 1.27)) (justify left))
    )
    (property "Value" "connector_coax" (id 1) (at 166.3954 117.221 0)
      (effects (font (size 1.27 1.27)) (justify left) hide)
    )
    (property "Footprint" "kicad_pcb:SMA_SW_slot_full" (id 2) (at 163.83 110.49 0)
      (effects (font (size 1.27 1.27)) hide)
    )
    (property "Datasheet" "" (id 3) (at 163.83 114.3 0)
      (effects (font (size 1.27 1.27)) hide)
    )
  )

  (symbol (lib_id "misc:87PWJ") (at 153.67 114.3 0) (unit 1)
    (in_bom yes) (on_board yes)
    (uuid "3d762bdc-d1d1-46ec-9318-0cfcb782844e")
    (property "Reference" "U1" (id 0) (at 153.67 106.4068 0))
    (property "Value" "87PWJ" (id 1) (at 153.67 108.7055 0))
    (property "Footprint" "kicad_pcb:QFN-12-1EP_3x3mm_P0.5mm_EP1.25x1.25mm" (id 2) (at 151.13 113.03 0)
      (effects (font (size 1.27 1.27)) (justify left) hide)
    )
    (property "Datasheet" "${PARTS}/87PWJ/MDB-44H+_dashboard.pdf" (id 3) (at 163.83 118.11 90)
      (effects (font (size 1.27 1.27)) hide)
    )
  )

  (sheet_instances
    (path "/" (page "1"))
  )

  (symbol_instances
    (path "/24adcff0-75fe-4205-bec9-57b4aa6e210c"
      (reference "#PWR0105") (unit 1) (value "GND") (footprint "")
    )
    (path "/1835423a-d07e-47a6-a3d7-a106d38b2763"
      (reference "#PWR0109") (unit 1) (value "GND") (footprint "")
    )
    (path "/28a16bd3-5dd6-4c59-b2c9-385d9821e22a"
      (reference "#PWR0110") (unit 1) (value "GND") (footprint "")
    )
    (path "/5a63ffbf-905d-4e0d-bb69-c6dd4feab97f"
      (reference "P1") (unit 1) (value "connector_coax") (footprint "kicad_pcb:SMA_SW_slot_full")
    )
    (path "/c7f2f4d4-94da-4745-a9b4-1b8f23fb4ef7"
      (reference "P2") (unit 1) (value "connector_coax") (footprint "kicad_pcb:SMA_SW_slot_full")
    )
    (path "/495b4be5-c8fe-41aa-9424-6c54546b7d1d"
      (reference "P3") (unit 1) (value "connector_coax") (footprint "kicad_pcb:SMA_SW_slot_full")
    )
    (path "/fc735fd1-5d90-4f31-ae0f-e29e2bd4544c"
      (reference "TH1") (unit 1) (value "tooling_hole") (footprint "kicad_pcb:tooling_hole_2.55")
    )
    (path "/f541f10b-a8b9-40fb-ab83-7319e30b570d"
      (reference "TH2") (unit 1) (value "tooling_hole") (footprint "kicad_pcb:tooling_hole_2.55")
    )
    (path "/3d762bdc-d1d1-46ec-9318-0cfcb782844e"
      (reference "U1") (unit 1) (value "87PWJ") (footprint "kicad_pcb:QFN-12-1EP_3x3mm_P0.5mm_EP1.25x1.25mm")
    )
  )
)
