(kicad_sch (version 20210126) (generator eeschema)

  (paper "USLetter")

  (title_block
    (date "2021-03-25")
    (company "Harmon Instruments")
  )

  (lib_symbols
    (symbol "connector:Rosenberger_Probe_4" (pin_names (offset 1.016)) (in_bom yes) (on_board yes)
      (property "Reference" "J" (id 0) (at 0 3.81 0)
        (effects (font (size 1.27 1.27)) (justify left))
      )
      (property "Value" "Rosenberger_Probe_4" (id 1) (at 0 1.27 0)
        (effects (font (size 1.27 1.27)) (justify left))
      )
      (property "Footprint" "kicad_pcb:rosenberger_probe4" (id 2) (at 0 1.27 0)
        (effects (font (size 1.27 1.27)) (justify left) hide)
      )
      (property "Datasheet" "${PARTS}/FBV4B/08K80F-40ML5.pdf" (id 3) (at 6.35 0 90)
        (effects (font (size 1.27 1.27)) hide)
      )
      (property "ki_description" "Rosenberger 1.85 mm angle launch" (id 4) (at 0 0 0)
        (effects (font (size 1.27 1.27)) hide)
      )
      (symbol "Rosenberger_Probe_4_0_1"
        (rectangle (start 0 0) (end 10.16 -7.62)
          (stroke (width 0)) (fill (type background))
        )
      )
      (symbol "Rosenberger_Probe_4_1_1"
        (pin passive line (at 5.08 -10.16 90) (length 2.54)
          (name "GND" (effects (font (size 1.27 1.27))))
          (number "0" (effects (font (size 1.27 1.27))))
        )
        (pin passive line (at -2.54 -2.54 0) (length 2.54)
          (name "T1" (effects (font (size 1.27 1.27))))
          (number "1" (effects (font (size 1.27 1.27))))
        )
        (pin passive line (at -2.54 -5.08 0) (length 2.54)
          (name "B1" (effects (font (size 1.27 1.27))))
          (number "2" (effects (font (size 1.27 1.27))))
        )
        (pin passive line (at 12.7 -2.54 180) (length 2.54)
          (name "T2" (effects (font (size 1.27 1.27))))
          (number "3" (effects (font (size 1.27 1.27))))
        )
        (pin passive line (at 12.7 -5.08 180) (length 2.54)
          (name "B2" (effects (font (size 1.27 1.27))))
          (number "4" (effects (font (size 1.27 1.27))))
        )
      )
    )
    (symbol "connector:connector_coax" (pin_names (offset 1.016) hide) (in_bom yes) (on_board yes)
      (property "Reference" "P" (id 0) (at 0 6.35 0)
        (effects (font (size 1.27 1.27)))
      )
      (property "Value" "connector_coax" (id 1) (at 0 3.81 0)
        (effects (font (size 1.27 1.27)))
      )
      (property "Footprint" "?" (id 2) (at 0 3.81 0)
        (effects (font (size 1.27 1.27)) hide)
      )
      (property "Datasheet" "" (id 3) (at 0 0 0)
        (effects (font (size 1.27 1.27)) hide)
      )
      (symbol "connector_coax_0_1"
        (circle (center 0 0) (radius 0.508) (stroke (width 0.2032)) (fill (type none)))
        (circle (center 0 0) (radius 1.778) (stroke (width 0.3048)) (fill (type none)))
      )
      (symbol "connector_coax_1_1"
        (pin passive line (at -3.81 0 0) (length 3.302)
          (name "In" (effects (font (size 1.016 1.016))))
          (number "1" (effects (font (size 1.016 1.016))))
        )
        (pin passive line (at 0 -5.08 90) (length 3.302)
          (name "Ext" (effects (font (size 1.016 1.016))))
          (number "2" (effects (font (size 1.016 1.016))))
        )
      )
    )
    (symbol "power:GND" (power) (pin_names (offset 0)) (in_bom yes) (on_board yes)
      (property "Reference" "#PWR" (id 0) (at 0 -6.35 0)
        (effects (font (size 1.27 1.27)) hide)
      )
      (property "Value" "GND" (id 1) (at 0 -3.81 0)
        (effects (font (size 1.27 1.27)))
      )
      (property "Footprint" "" (id 2) (at 0 0 0)
        (effects (font (size 1.27 1.27)) hide)
      )
      (property "Datasheet" "" (id 3) (at 0 0 0)
        (effects (font (size 1.27 1.27)) hide)
      )
      (property "ki_keywords" "power-flag" (id 4) (at 0 0 0)
        (effects (font (size 1.27 1.27)) hide)
      )
      (property "ki_description" "Power symbol creates a global label with name \"GND\" , ground" (id 5) (at 0 0 0)
        (effects (font (size 1.27 1.27)) hide)
      )
      (symbol "GND_0_1"
        (polyline
          (pts
            (xy 0 0)
            (xy 0 -1.27)
            (xy 1.27 -1.27)
            (xy 0 -2.54)
            (xy -1.27 -1.27)
            (xy 0 -1.27)
          )
          (stroke (width 0)) (fill (type none))
        )
      )
      (symbol "GND_1_1"
        (pin power_in line (at 0 0 270) (length 0) hide
          (name "GND" (effects (font (size 1.27 1.27))))
          (number "1" (effects (font (size 1.27 1.27))))
        )
      )
    )
  )


  (wire (pts (xy 162.56 114.3) (xy 168.91 114.3))
    (stroke (width 0) (type solid) (color 0 0 0 0))
    (uuid b945779f-75a4-411c-b26a-99e6ce4e3384)
  )

  (symbol (lib_id "power:GND") (at 158.75 119.38 0) (unit 1)
    (in_bom yes) (on_board yes)
    (uuid 1835423a-d07e-47a6-a3d7-a106d38b2763)
    (property "Reference" "#PWR0109" (id 0) (at 158.75 125.73 0)
      (effects (font (size 1.27 1.27)) hide)
    )
    (property "Value" "GND" (id 1) (at 158.8643 123.7044 0)
      (effects (font (size 1.27 1.27)) hide)
    )
    (property "Footprint" "" (id 2) (at 158.75 119.38 0)
      (effects (font (size 1.27 1.27)) hide)
    )
    (property "Datasheet" "" (id 3) (at 158.75 119.38 0)
      (effects (font (size 1.27 1.27)) hide)
    )
    (pin "1" (uuid ae44587f-59f7-428e-83fb-30c615e70b37))
  )

  (symbol (lib_id "power:GND") (at 168.91 116.84 270) (unit 1)
    (in_bom yes) (on_board yes)
    (uuid 752f6170-c23b-47a3-9f31-ccb7650cc4cf)
    (property "Reference" "#PWR0103" (id 0) (at 162.56 116.84 0)
      (effects (font (size 1.27 1.27)) hide)
    )
    (property "Value" "GND" (id 1) (at 164.5856 116.9543 0)
      (effects (font (size 1.27 1.27)) hide)
    )
    (property "Footprint" "" (id 2) (at 168.91 116.84 0)
      (effects (font (size 1.27 1.27)) hide)
    )
    (property "Datasheet" "" (id 3) (at 168.91 116.84 0)
      (effects (font (size 1.27 1.27)) hide)
    )
    (pin "1" (uuid 5a79addf-4054-45f2-b045-df3ba5715da5))
  )

  (symbol (lib_id "power:GND") (at 176.53 121.92 0) (unit 1)
    (in_bom yes) (on_board yes)
    (uuid 28a16bd3-5dd6-4c59-b2c9-385d9821e22a)
    (property "Reference" "#PWR0110" (id 0) (at 176.53 128.27 0)
      (effects (font (size 1.27 1.27)) hide)
    )
    (property "Value" "GND" (id 1) (at 176.6443 126.2444 0)
      (effects (font (size 1.27 1.27)) hide)
    )
    (property "Footprint" "" (id 2) (at 176.53 121.92 0)
      (effects (font (size 1.27 1.27)) hide)
    )
    (property "Datasheet" "" (id 3) (at 176.53 121.92 0)
      (effects (font (size 1.27 1.27)) hide)
    )
    (pin "1" (uuid e9fdec9d-b063-4be7-82de-24fa4d3ec689))
  )

  (symbol (lib_id "power:GND") (at 184.15 114.3 90) (unit 1)
    (in_bom yes) (on_board yes)
    (uuid c518430c-6b24-4208-a472-8e71899830f5)
    (property "Reference" "#PWR0102" (id 0) (at 190.5 114.3 0)
      (effects (font (size 1.27 1.27)) hide)
    )
    (property "Value" "GND" (id 1) (at 188.4744 114.1857 0)
      (effects (font (size 1.27 1.27)) hide)
    )
    (property "Footprint" "" (id 2) (at 184.15 114.3 0)
      (effects (font (size 1.27 1.27)) hide)
    )
    (property "Datasheet" "" (id 3) (at 184.15 114.3 0)
      (effects (font (size 1.27 1.27)) hide)
    )
    (pin "1" (uuid 0263d8ee-6fda-4a5a-b2ff-f939d217fb86))
  )

  (symbol (lib_id "power:GND") (at 184.15 116.84 90) (unit 1)
    (in_bom yes) (on_board yes)
    (uuid 129a5df0-c06a-4171-be70-446cd143db8b)
    (property "Reference" "#PWR0101" (id 0) (at 190.5 116.84 0)
      (effects (font (size 1.27 1.27)) hide)
    )
    (property "Value" "GND" (id 1) (at 188.4744 116.7257 0)
      (effects (font (size 1.27 1.27)) hide)
    )
    (property "Footprint" "" (id 2) (at 184.15 116.84 0)
      (effects (font (size 1.27 1.27)) hide)
    )
    (property "Datasheet" "" (id 3) (at 184.15 116.84 0)
      (effects (font (size 1.27 1.27)) hide)
    )
    (pin "1" (uuid 94460338-79b4-45ba-a97e-da6466289f00))
  )

  (symbol (lib_id "connector:connector_coax") (at 158.75 114.3 0) (mirror y) (unit 1)
    (in_bom yes) (on_board yes)
    (uuid 5a63ffbf-905d-4e0d-bb69-c6dd4feab97f)
    (property "Reference" "P1" (id 0) (at 158.6103 110.8264 0))
    (property "Value" "connector_coax" (id 1) (at 159.8676 110.5916 0)
      (effects (font (size 1.27 1.27)) hide)
    )
    (property "Footprint" "kicad_pcb:SMA_SW_slot_full" (id 2) (at 158.75 110.49 0)
      (effects (font (size 1.27 1.27)) hide)
    )
    (property "Datasheet" "" (id 3) (at 158.75 114.3 0)
      (effects (font (size 1.27 1.27)) hide)
    )
    (pin "1" (uuid 76ef815f-79fe-4a63-aa43-566970533f2b))
    (pin "2" (uuid e6984573-b133-42de-93ed-041f3d8a1dae))
  )

  (symbol (lib_id "connector:Rosenberger_Probe_4") (at 171.45 111.76 0) (unit 1)
    (in_bom yes) (on_board yes)
    (uuid f97a829e-bee9-46e5-9509-bf9fd484f353)
    (property "Reference" "J1" (id 0) (at 176.53 108.4538 0))
    (property "Value" "Rosenberger_Probe_4" (id 1) (at 176.53 110.7525 0))
    (property "Footprint" "kicad_pcb:rosenberger_probe4" (id 2) (at 171.45 110.49 0)
      (effects (font (size 1.27 1.27)) (justify left) hide)
    )
    (property "Datasheet" "${PARTS}/FBV4B/08K80F-40ML5.pdf" (id 3) (at 177.8 111.76 90)
      (effects (font (size 1.27 1.27)) hide)
    )
    (pin "0" (uuid 3545158a-2e04-44a1-abe8-ff59e7b479df))
    (pin "1" (uuid 1caca52c-0ecc-49b0-8db9-cf567c2415a4))
    (pin "2" (uuid 62889719-d589-459a-a07b-17121a11f1c5))
    (pin "3" (uuid b3e9d34f-e90e-4d22-81e6-fe61453467a7))
    (pin "4" (uuid 40cd1c3b-b7d2-4b36-9caf-86d0459c2d9d))
  )

  (sheet_instances
    (path "/" (page "1"))
  )

  (symbol_instances
    (path "/129a5df0-c06a-4171-be70-446cd143db8b"
      (reference "#PWR0101") (unit 1) (value "GND") (footprint "")
    )
    (path "/c518430c-6b24-4208-a472-8e71899830f5"
      (reference "#PWR0102") (unit 1) (value "GND") (footprint "")
    )
    (path "/752f6170-c23b-47a3-9f31-ccb7650cc4cf"
      (reference "#PWR0103") (unit 1) (value "GND") (footprint "")
    )
    (path "/1835423a-d07e-47a6-a3d7-a106d38b2763"
      (reference "#PWR0109") (unit 1) (value "GND") (footprint "")
    )
    (path "/28a16bd3-5dd6-4c59-b2c9-385d9821e22a"
      (reference "#PWR0110") (unit 1) (value "GND") (footprint "")
    )
    (path "/f97a829e-bee9-46e5-9509-bf9fd484f353"
      (reference "J1") (unit 1) (value "Rosenberger_Probe_4") (footprint "kicad_pcb:rosenberger_probe4")
    )
    (path "/5a63ffbf-905d-4e0d-bb69-c6dd4feab97f"
      (reference "P1") (unit 1) (value "connector_coax") (footprint "kicad_pcb:SMA_SW_slot_full")
    )
  )
)
