(kicad_sch (version 20210126) (generator eeschema)

  (paper "USLetter")

  (title_block
    (date "2021-03-19")
    (company "Harmon Instruments")
  )

  (lib_symbols
    (symbol "connector:connector_coax" (pin_names (offset 1.016) hide) (in_bom yes) (on_board yes)
      (property "Reference" "P" (id 0) (at 0 6.35 0)
        (effects (font (size 1.27 1.27)))
      )
      (property "Value" "connector_coax" (id 1) (at 0 3.81 0)
        (effects (font (size 1.27 1.27)))
      )
      (property "Footprint" "?" (id 2) (at 0 3.81 0)
        (effects (font (size 1.27 1.27)) hide)
      )
      (property "Datasheet" "" (id 3) (at 0 0 0)
        (effects (font (size 1.27 1.27)) hide)
      )
      (symbol "connector_coax_0_1"
        (circle (center 0 0) (radius 0.508) (stroke (width 0.2032)) (fill (type none)))
        (circle (center 0 0) (radius 1.778) (stroke (width 0.3048)) (fill (type none)))
      )
      (symbol "connector_coax_1_1"
        (pin passive line (at -3.81 0 0) (length 3.302)
          (name "In" (effects (font (size 1.016 1.016))))
          (number "1" (effects (font (size 1.016 1.016))))
        )
        (pin passive line (at 0 -5.08 90) (length 3.302)
          (name "Ext" (effects (font (size 1.016 1.016))))
          (number "2" (effects (font (size 1.016 1.016))))
        )
      )
    )
    (symbol "ic:2M6GQ" (pin_names (offset 1.016)) (in_bom yes) (on_board yes)
      (property "Reference" "U" (id 0) (at 0 3.81 0)
        (effects (font (size 1.27 1.27)) (justify left))
      )
      (property "Value" "2M6GQ" (id 1) (at 0 1.27 0)
        (effects (font (size 1.27 1.27)) (justify left))
      )
      (property "Footprint" "kicad_pcb:QFN-24-1EP_4x4mm_P0.5mm_EP2.6x2.6mm" (id 2) (at 7.62 1.27 0)
        (effects (font (size 1.27 1.27)) (justify left) hide)
      )
      (property "Datasheet" "$PARTS/2M6GQ/CY2-143+.pdf" (id 3) (at 6.35 0 90)
        (effects (font (size 1.27 1.27)) hide)
      )
      (property "ki_keywords" "MiniCircuits" (id 4) (at 0 0 0)
        (effects (font (size 1.27 1.27)) hide)
      )
      (property "ki_description" "CY2-143+ frequency doubler 4-14 GHz" (id 5) (at 0 0 0)
        (effects (font (size 1.27 1.27)) hide)
      )
      (symbol "2M6GQ_0_0"
        (text "x2" (at 6.35 -2.54 0)
          (effects (font (size 1.524 1.524)))
        )
      )
      (symbol "2M6GQ_0_1"
        (rectangle (start 0 0) (end 12.7 -5.08)
          (stroke (width 0)) (fill (type background))
        )
      )
      (symbol "2M6GQ_1_1"
        (pin power_in line (at 5.08 -3.81 0) (length 2.54) hide
          (name "GND" (effects (font (size 1.27 1.27))))
          (number "1" (effects (font (size 1.27 1.27))))
        )
        (pin power_in line (at 5.08 -3.81 0) (length 2.54) hide
          (name "GND" (effects (font (size 1.27 1.27))))
          (number "10" (effects (font (size 1.27 1.27))))
        )
        (pin power_in line (at 5.08 -3.81 0) (length 2.54) hide
          (name "GND" (effects (font (size 1.27 1.27))))
          (number "11" (effects (font (size 1.27 1.27))))
        )
        (pin power_in line (at 5.08 -3.81 0) (length 2.54) hide
          (name "GND" (effects (font (size 1.27 1.27))))
          (number "12" (effects (font (size 1.27 1.27))))
        )
        (pin power_in line (at 5.08 -3.81 0) (length 2.54) hide
          (name "GND" (effects (font (size 1.27 1.27))))
          (number "13" (effects (font (size 1.27 1.27))))
        )
        (pin power_in line (at 5.08 -3.81 0) (length 2.54) hide
          (name "GND" (effects (font (size 1.27 1.27))))
          (number "14" (effects (font (size 1.27 1.27))))
        )
        (pin power_in line (at 5.08 -3.81 0) (length 2.54) hide
          (name "GND" (effects (font (size 1.27 1.27))))
          (number "15" (effects (font (size 1.27 1.27))))
        )
        (pin passive line (at 15.24 -2.54 180) (length 2.54)
          (name "out" (effects (font (size 1.27 1.27))))
          (number "16" (effects (font (size 1.27 1.27))))
        )
        (pin power_in line (at 5.08 -3.81 0) (length 2.54) hide
          (name "GND" (effects (font (size 1.27 1.27))))
          (number "17" (effects (font (size 1.27 1.27))))
        )
        (pin power_in line (at 5.08 -3.81 0) (length 2.54) hide
          (name "GND" (effects (font (size 1.27 1.27))))
          (number "18" (effects (font (size 1.27 1.27))))
        )
        (pin power_in line (at 5.08 -3.81 0) (length 2.54) hide
          (name "GND" (effects (font (size 1.27 1.27))))
          (number "19" (effects (font (size 1.27 1.27))))
        )
        (pin power_in line (at 5.08 -3.81 0) (length 2.54) hide
          (name "GND" (effects (font (size 1.27 1.27))))
          (number "2" (effects (font (size 1.27 1.27))))
        )
        (pin power_in line (at 5.08 -3.81 0) (length 2.54) hide
          (name "GND" (effects (font (size 1.27 1.27))))
          (number "20" (effects (font (size 1.27 1.27))))
        )
        (pin power_in line (at 5.08 -3.81 0) (length 2.54) hide
          (name "GND" (effects (font (size 1.27 1.27))))
          (number "21" (effects (font (size 1.27 1.27))))
        )
        (pin power_in line (at 5.08 -3.81 0) (length 2.54) hide
          (name "GND" (effects (font (size 1.27 1.27))))
          (number "22" (effects (font (size 1.27 1.27))))
        )
        (pin power_in line (at 5.08 -3.81 0) (length 2.54) hide
          (name "GND" (effects (font (size 1.27 1.27))))
          (number "23" (effects (font (size 1.27 1.27))))
        )
        (pin power_in line (at 5.08 -3.81 0) (length 2.54) hide
          (name "GND" (effects (font (size 1.27 1.27))))
          (number "24" (effects (font (size 1.27 1.27))))
        )
        (pin power_in line (at 5.08 -3.81 0) (length 2.54) hide
          (name "GND" (effects (font (size 1.27 1.27))))
          (number "25" (effects (font (size 1.27 1.27))))
        )
        (pin passive line (at -2.54 -2.54 0) (length 2.54)
          (name "in" (effects (font (size 1.27 1.27))))
          (number "3" (effects (font (size 1.27 1.27))))
        )
        (pin power_in line (at 5.08 -3.81 0) (length 2.54) hide
          (name "GND" (effects (font (size 1.27 1.27))))
          (number "4" (effects (font (size 1.27 1.27))))
        )
        (pin power_in line (at 5.08 -3.81 0) (length 2.54) hide
          (name "GND" (effects (font (size 1.27 1.27))))
          (number "5" (effects (font (size 1.27 1.27))))
        )
        (pin power_in line (at 5.08 -3.81 0) (length 2.54) hide
          (name "GND" (effects (font (size 1.27 1.27))))
          (number "6" (effects (font (size 1.27 1.27))))
        )
        (pin power_in line (at 5.08 -3.81 0) (length 2.54) hide
          (name "GND" (effects (font (size 1.27 1.27))))
          (number "7" (effects (font (size 1.27 1.27))))
        )
        (pin power_in line (at 5.08 -3.81 0) (length 2.54) hide
          (name "GND" (effects (font (size 1.27 1.27))))
          (number "8" (effects (font (size 1.27 1.27))))
        )
        (pin power_in line (at 5.08 -3.81 0) (length 2.54) hide
          (name "GND" (effects (font (size 1.27 1.27))))
          (number "9" (effects (font (size 1.27 1.27))))
        )
      )
    )
    (symbol "misc:tooling_hole" (pin_numbers hide) (pin_names (offset 1.016) hide) (in_bom yes) (on_board yes)
      (property "Reference" "TH" (id 0) (at 2.54 0 0)
        (effects (font (size 1.27 1.27)) (justify left))
      )
      (property "Value" "tooling_hole" (id 1) (at 3.81 0 0)
        (effects (font (size 1.27 1.27)) (justify left) hide)
      )
      (property "Footprint" "kicad_pcb:tooling_hole_2.55" (id 2) (at 3.81 2.54 0)
        (effects (font (size 1.27 1.27)) (justify left) hide)
      )
      (property "Datasheet" "" (id 3) (at 5.08 5.08 90)
        (effects (font (size 1.27 1.27)) hide)
      )
      (property "ki_description" "Tooling hole for stencil alignment" (id 4) (at 0 0 0)
        (effects (font (size 1.27 1.27)) hide)
      )
      (symbol "tooling_hole_0_0"
        (circle (center 0 0) (radius 1.27) (stroke (width 0)) (fill (type none)))
      )
    )
    (symbol "power:GND" (power) (pin_names (offset 0)) (in_bom yes) (on_board yes)
      (property "Reference" "#PWR" (id 0) (at 0 -6.35 0)
        (effects (font (size 1.27 1.27)) hide)
      )
      (property "Value" "GND" (id 1) (at 0 -3.81 0)
        (effects (font (size 1.27 1.27)))
      )
      (property "Footprint" "" (id 2) (at 0 0 0)
        (effects (font (size 1.27 1.27)) hide)
      )
      (property "Datasheet" "" (id 3) (at 0 0 0)
        (effects (font (size 1.27 1.27)) hide)
      )
      (property "ki_keywords" "power-flag" (id 4) (at 0 0 0)
        (effects (font (size 1.27 1.27)) hide)
      )
      (property "ki_description" "Power symbol creates a global label with name \"GND\" , ground" (id 5) (at 0 0 0)
        (effects (font (size 1.27 1.27)) hide)
      )
      (symbol "GND_0_1"
        (polyline
          (pts
            (xy 0 0)
            (xy 0 -1.27)
            (xy 1.27 -1.27)
            (xy 0 -2.54)
            (xy -1.27 -1.27)
            (xy 0 -1.27)
          )
          (stroke (width 0)) (fill (type none))
        )
      )
      (symbol "GND_1_1"
        (pin power_in line (at 0 0 270) (length 0) hide
          (name "GND" (effects (font (size 1.27 1.27))))
          (number "1" (effects (font (size 1.27 1.27))))
        )
      )
    )
  )


  (wire (pts (xy 135.89 114.3) (xy 139.7 114.3))
    (stroke (width 0) (type solid) (color 0 0 0 0))
    (uuid b7636e59-09fb-4c2d-8acd-2645672c7091)
  )
  (wire (pts (xy 157.48 114.3) (xy 161.29 114.3))
    (stroke (width 0) (type solid) (color 0 0 0 0))
    (uuid cf493208-9035-4be2-b843-3a38f443a5e8)
  )

  (label "IN" (at 138.43 114.3 180)
    (effects (font (size 1.27 1.27)) (justify right bottom))
    (uuid c9fd093a-6060-4a19-aad7-1048e041da49)
  )
  (label "OUT" (at 157.48 114.3 0)
    (effects (font (size 1.27 1.27)) (justify left bottom))
    (uuid 03a95a32-4115-4bd4-8cf2-6f91bc3674ff)
  )

  (symbol (lib_id "misc:tooling_hole") (at 196.85 86.36 0) (unit 1)
    (in_bom yes) (on_board yes)
    (uuid afedef6b-0acd-4eb7-baf4-acaae70cfaac)
    (property "Reference" "TH1" (id 0) (at 198.7551 86.7485 0)
      (effects (font (size 1.27 1.27)) (justify left))
    )
    (property "Value" "tooling_hole" (id 1) (at 200.66 86.36 0)
      (effects (font (size 1.27 1.27)) (justify left) hide)
    )
    (property "Footprint" "kicad_pcb:tooling_hole_2.55" (id 2) (at 200.66 83.82 0)
      (effects (font (size 1.27 1.27)) (justify left) hide)
    )
    (property "Datasheet" "" (id 3) (at 201.93 81.28 90)
      (effects (font (size 1.27 1.27)) hide)
    )
  )

  (symbol (lib_id "misc:tooling_hole") (at 196.85 90.17 0) (unit 1)
    (in_bom yes) (on_board yes)
    (uuid edf5132c-c3e2-4eb0-bc4d-eca831fb44ab)
    (property "Reference" "TH2" (id 0) (at 198.7551 90.5585 0)
      (effects (font (size 1.27 1.27)) (justify left))
    )
    (property "Value" "tooling_hole" (id 1) (at 200.66 90.17 0)
      (effects (font (size 1.27 1.27)) (justify left) hide)
    )
    (property "Footprint" "kicad_pcb:tooling_hole_2.55" (id 2) (at 200.66 87.63 0)
      (effects (font (size 1.27 1.27)) (justify left) hide)
    )
    (property "Datasheet" "" (id 3) (at 201.93 85.09 90)
      (effects (font (size 1.27 1.27)) hide)
    )
  )

  (symbol (lib_id "power:GND") (at 132.08 119.38 0) (unit 1)
    (in_bom yes) (on_board yes)
    (uuid 1835423a-d07e-47a6-a3d7-a106d38b2763)
    (property "Reference" "#PWR0109" (id 0) (at 132.08 125.73 0)
      (effects (font (size 1.27 1.27)) hide)
    )
    (property "Value" "GND" (id 1) (at 132.1943 123.7044 0)
      (effects (font (size 1.27 1.27)) hide)
    )
    (property "Footprint" "" (id 2) (at 132.08 119.38 0)
      (effects (font (size 1.27 1.27)) hide)
    )
    (property "Datasheet" "" (id 3) (at 132.08 119.38 0)
      (effects (font (size 1.27 1.27)) hide)
    )
    (pin "1" (uuid e7195bcb-0432-4234-8e17-dd95d008f6ef))
  )

  (symbol (lib_id "power:GND") (at 165.1 119.38 0) (unit 1)
    (in_bom yes) (on_board yes)
    (uuid 28a16bd3-5dd6-4c59-b2c9-385d9821e22a)
    (property "Reference" "#PWR0110" (id 0) (at 165.1 125.73 0)
      (effects (font (size 1.27 1.27)) hide)
    )
    (property "Value" "GND" (id 1) (at 165.2143 123.7044 0)
      (effects (font (size 1.27 1.27)) hide)
    )
    (property "Footprint" "" (id 2) (at 165.1 119.38 0)
      (effects (font (size 1.27 1.27)) hide)
    )
    (property "Datasheet" "" (id 3) (at 165.1 119.38 0)
      (effects (font (size 1.27 1.27)) hide)
    )
    (pin "1" (uuid 24a7252c-a30b-4e1b-a4ef-bbca0104c1f8))
  )

  (symbol (lib_id "connector:connector_coax") (at 132.08 114.3 0) (mirror y) (unit 1)
    (in_bom yes) (on_board yes)
    (uuid 5a63ffbf-905d-4e0d-bb69-c6dd4feab97f)
    (property "Reference" "P1" (id 0) (at 131.9403 110.8264 0))
    (property "Value" "TK38Q" (id 1) (at 133.1976 110.5916 0)
      (effects (font (size 1.27 1.27)) hide)
    )
    (property "Footprint" "kicad_pcb:SMA_901105133" (id 2) (at 132.08 110.49 0)
      (effects (font (size 1.27 1.27)) hide)
    )
    (property "Datasheet" "" (id 3) (at 132.08 114.3 0)
      (effects (font (size 1.27 1.27)) hide)
    )
    (pin "1" (uuid 77c38557-5b13-44a0-a4b0-bc1611ab253e))
    (pin "2" (uuid fad657c7-69ed-4b4a-aaa7-9ec6957465dd))
  )

  (symbol (lib_id "connector:connector_coax") (at 165.1 114.3 0) (unit 1)
    (in_bom yes) (on_board yes)
    (uuid c7f2f4d4-94da-4745-a9b4-1b8f23fb4ef7)
    (property "Reference" "P2" (id 0) (at 163.8555 111.1059 0)
      (effects (font (size 1.27 1.27)) (justify left))
    )
    (property "Value" "TK38Q" (id 1) (at 167.6654 117.221 0)
      (effects (font (size 1.27 1.27)) (justify left) hide)
    )
    (property "Footprint" "kicad_pcb:SMA_901105133" (id 2) (at 165.1 110.49 0)
      (effects (font (size 1.27 1.27)) hide)
    )
    (property "Datasheet" "" (id 3) (at 165.1 114.3 0)
      (effects (font (size 1.27 1.27)) hide)
    )
    (pin "1" (uuid 1d429094-825c-49b9-962b-1bb4a6986880))
    (pin "2" (uuid dd7bbafd-874f-459c-9f2e-ccd785235b28))
  )

  (symbol (lib_id "ic:2M6GQ") (at 142.24 111.76 0) (unit 1)
    (in_bom yes) (on_board yes)
    (uuid 9eb9b570-d811-4b33-aeb8-2e1f27cdf84f)
    (property "Reference" "U1" (id 0) (at 148.59 108.4538 0))
    (property "Value" "2M6GQ" (id 1) (at 148.59 110.7525 0))
    (property "Footprint" "kicad_pcb:QFN-24-1EP_4x4mm_P0.5mm_EP2.6x2.6mm" (id 2) (at 149.86 110.49 0)
      (effects (font (size 1.27 1.27)) (justify left) hide)
    )
    (property "Datasheet" "$PARTS/2M6GQ/CY2-143+.pdf" (id 3) (at 148.59 111.76 90)
      (effects (font (size 1.27 1.27)) hide)
    )
    (pin "1" (uuid 1e922968-b083-45b1-8f0e-6063cf6cdeb4))
    (pin "10" (uuid 9ec80b19-b414-4bca-b2e8-b6de3c2d929a))
    (pin "11" (uuid 53c3f49c-0f6d-405d-9f39-8279f60d53cb))
    (pin "12" (uuid b53a8990-83be-45a3-872c-1aec9457a1a8))
    (pin "13" (uuid b25d89ea-d5c6-4447-99bd-06f5a4746a66))
    (pin "14" (uuid a92856f6-dfcb-44bc-9da1-c2662c282d9d))
    (pin "15" (uuid a41e6c18-3754-429d-8b93-9830b86a02f2))
    (pin "16" (uuid 157efbf0-2e99-4c86-8ad6-cd62e4b14cca))
    (pin "17" (uuid 136f5df5-c2f2-48a6-a916-4435dd20251c))
    (pin "18" (uuid 0c4d347c-aea2-4a6c-b990-4013aeb20fca))
    (pin "19" (uuid 065e91e3-684f-4852-a0fe-0dea2b640321))
    (pin "2" (uuid dcd6883a-dbd4-409b-b8fb-9a5dacb53c07))
    (pin "20" (uuid 3ed49160-afc0-432b-879e-82a56f7290f1))
    (pin "21" (uuid ffc07cd8-c5d1-4911-8ed8-773125c957cf))
    (pin "22" (uuid e71e3aeb-4445-4430-9218-054c38f35a26))
    (pin "23" (uuid 6f2db503-a439-40f9-9d78-89c161b8c03d))
    (pin "24" (uuid fec653a8-aa32-46b2-80fa-d4a54e7493c8))
    (pin "25" (uuid 3a0eeebe-ea5e-4fa2-b06d-e9fe54aa912f))
    (pin "3" (uuid 4a847bcf-9cc6-424d-be69-13effb4b5c15))
    (pin "4" (uuid 53bec6d2-392c-4695-945c-e8219545e75e))
    (pin "5" (uuid 68c2ac0d-8454-4144-b747-635bba3b17a4))
    (pin "6" (uuid e9bf50cf-6536-4ef4-8f7a-1de27ff2aaac))
    (pin "7" (uuid 5f66da0d-47da-418e-8af8-74067d84cca8))
    (pin "8" (uuid eb0a7793-e1ee-417a-a684-2edaec76b2bf))
    (pin "9" (uuid 7c4a96cc-49c9-4692-a3ed-778636161f9b))
  )

  (sheet_instances
    (path "/" (page "1"))
  )

  (symbol_instances
    (path "/1835423a-d07e-47a6-a3d7-a106d38b2763"
      (reference "#PWR0109") (unit 1) (value "GND") (footprint "")
    )
    (path "/28a16bd3-5dd6-4c59-b2c9-385d9821e22a"
      (reference "#PWR0110") (unit 1) (value "GND") (footprint "")
    )
    (path "/5a63ffbf-905d-4e0d-bb69-c6dd4feab97f"
      (reference "P1") (unit 1) (value "TK38Q") (footprint "kicad_pcb:SMA_901105133")
    )
    (path "/c7f2f4d4-94da-4745-a9b4-1b8f23fb4ef7"
      (reference "P2") (unit 1) (value "TK38Q") (footprint "kicad_pcb:SMA_901105133")
    )
    (path "/afedef6b-0acd-4eb7-baf4-acaae70cfaac"
      (reference "TH1") (unit 1) (value "tooling_hole") (footprint "kicad_pcb:tooling_hole_2.55")
    )
    (path "/edf5132c-c3e2-4eb0-bc4d-eca831fb44ab"
      (reference "TH2") (unit 1) (value "tooling_hole") (footprint "kicad_pcb:tooling_hole_2.55")
    )
    (path "/9eb9b570-d811-4b33-aeb8-2e1f27cdf84f"
      (reference "U1") (unit 1) (value "2M6GQ") (footprint "kicad_pcb:QFN-24-1EP_4x4mm_P0.5mm_EP2.6x2.6mm")
    )
  )
)
